<!-- Created with Inkscape (http://www.inkscape.org/) --><svg xmlns:inkscape="http://www.inkscape.org/namespaces/inkscape" xmlns:sodipodi="http://sodipodi.sourceforge.net/DTD/sodipodi-0.dtd" xmlns="http://www.w3.org/2000/svg" xmlns:svg="http://www.w3.org/2000/svg" sodipodi:docname="clean_up_path.svg" id="svg1616" version="1.1" viewBox="0 0 210 297" height="297mm" width="210mm" inkscape:version="1.1.1 (3bf5ae0d25, 2021-09-20)">
  <sodipodi:namedview id="namedview1618" pagecolor="#ffffff" bordercolor="#000000" borderopacity="0.25" inkscape:pageshadow="2" inkscape:pageopacity="0.0" inkscape:pagecheckerboard="0" inkscape:document-units="mm" showgrid="false" inkscape:snap-global="false" inkscape:zoom="0.75462827" inkscape:cx="752.68847" inkscape:cy="372.36877" inkscape:window-width="1280" inkscape:window-height="730" inkscape:window-x="-6" inkscape:window-y="-6" inkscape:window-maximized="1" inkscape:current-layer="layer3" showguides="true"/>
  <defs id="defs1613">
    <inkscape:path-effect effect="spiro" id="path-effect3512" is_visible="true" lpeversion="1"/>
    <inkscape:path-effect effect="simplify" id="path-effect3510" is_visible="true" lpeversion="1" steps="1" threshold="0.00961538" smooth_angles="360" helper_size="0" simplify_individual_paths="false" simplify_just_coalesce="false"/>
    <inkscape:path-effect effect="simplify" id="path-effect5651" is_visible="true" lpeversion="1" steps="1" threshold="0.002" smooth_angles="0" helper_size="5" simplify_individual_paths="false" simplify_just_coalesce="false"/>
  </defs>
  <g inkscape:groupmode="layer" id="layer3" inkscape:label="originals_in_red">
    <path id="path_w_duplicates-2" style="display:inline;fill:none;stroke:#fa0000;stroke-width:0.25;stroke-linecap:square;stroke-linejoin:bevel;stroke-miterlimit:4;stroke-dasharray:none;stroke-opacity:1;paint-order:stroke fill markers" d="m 75.806361,11.543077 v 0 0 0 0 0 m -5.04404,1.090913 8.23403,6.861701 v 0 0 0 0 0 l 4.57447,-6.861701 5.48936,6.404255 9.14893,-5.946808 v 0 0 0 0 0 m -8.4125,-2.0625 v 0" sodipodi:nodetypes="ccccccccccccccccccccccc"/>
    <path id="path_line-3" style="display:inline;fill:none;stroke:#fa0000;stroke-width:0.25;stroke-linecap:square;stroke-linejoin:bevel;stroke-miterlimit:4;stroke-dasharray:none;stroke-opacity:1;paint-order:stroke fill markers" d="m 70.042851,34.992743 35.306809,3.76965 3.6e-4,-9.6e-5 20.5759,2.603683 3.7e-4,-9.6e-5 14.27366,1.711429 m -0.6768,-1.064292 -5e-5,-1.64e-4 z"/>
    <path id="path_simple_loop-3" style="display:inline;fill:none;fill-rule:evenodd;stroke:#fa0000;stroke-width:0.264583px;stroke-linecap:butt;stroke-linejoin:miter;stroke-opacity:1" d="m 60.636271,102.77529 7.7047,4.14869 13.8066,-8.68455 m 0.5127,-2.55468 v -8.890095 l -3.556,-7.11204 m -19.675,0.66198 13.6315,-1.18535 4.4926,-0.17519 m -19.7853,1.29123 V 97.46276 l 1.778,5.92669"/>
    <path style="display:inline;fill:none;fill-rule:evenodd;stroke:#fa0000;stroke-width:0.265;stroke-linecap:butt;stroke-linejoin:miter;stroke-miterlimit:4;stroke-dasharray:none;stroke-opacity:1" d="m 142.43684,142.51204 -0.14599,0.0498 -0.14598,0.0498 -0.14599,0.0498 -0.14598,0.0498 -0.14599,0.0498 -0.14598,0.0498 -0.14599,0.0498 -0.14598,0.0498 c -5.46066,1.86281 -11.14187,3.8008 -16.20437,5.5278 l -0.14599,0.0498 -0.14598,0.0498 -0.14599,0.0498 -0.14598,0.0498 -0.14599,0.0498 -0.14598,0.0498 -0.14599,0.0498 -0.14598,0.0498 -0.14599,0.0498 c -3.32842,1.01024 -5.34684,1.46536 -5.82547,1.20306 -0.0299,-0.0164 -0.0538,-0.0356 -0.0716,-0.0576 -0.0178,-0.022 -0.0296,-0.0469 -0.0352,-0.0747 -0.006,-0.0278 -0.005,-0.0584 0.002,-0.092 0.007,-0.0336 0.0195,-0.0701 0.0386,-0.1095 0.0191,-0.0394 0.0444,-0.0818 0.0761,-0.12727 0.0316,-0.0454 0.0696,-0.0938 0.11385,-0.14526 0.0443,-0.0515 0.0949,-0.10594 0.15196,-0.16351 0.057,-0.0576 0.12049,-0.11822 0.1904,-0.18199 2.3666,-1.84898 5.23913,-3.68319 8.13394,-5.39043 1.44741,-0.85362 2.90039,-1.67549 4.29849,-2.45161 0.69905,-0.38805 1.38438,-0.76466 2.04843,-1.12808 0.083,-0.0454 0.16568,-0.0907 0.24801,-0.13566 0.0823,-0.045 0.1643,-0.0898 0.24592,-0.13441 0.0816,-0.0446 0.16287,-0.089 0.24375,-0.13312 0.0809,-0.0442 0.16138,-0.0881 0.2415,-0.13183 0.0801,-0.0437 0.15983,-0.0872 0.23914,-0.1305 0.0793,-0.0433 0.15822,-0.0863 0.2367,-0.12917 0.0785,-0.0428 0.15656,-0.0854 0.23418,-0.12781 0.0776,-0.0424 0.15483,-0.0845 0.23157,-0.12642 -1.16733,0.30614 -2.65981,0.19908 -4.14719,-0.0547 -1.48738,-0.25381 -2.96966,-0.65436 -4.11659,-0.93521 -0.0717,-0.0175 -0.14206,-0.0346 -0.21104,-0.0512 -0.069,-0.0165 -0.13657,-0.0326 -0.20269,-0.048 -0.0661,-0.0154 -0.13077,-0.0302 -0.19387,-0.0444 -0.0631,-0.0142 -0.12464,-0.0277 -0.18456,-0.0404 -0.0599,-0.0128 -0.11819,-0.0248 -0.17476,-0.0361 -0.0566,-0.0113 -0.11142,-0.0217 -0.16448,-0.0313 -0.0531,-0.01 -0.10433,-0.0183 -0.15372,-0.0262 -0.0494,-0.008 -0.0969,-0.0147 -0.14248,-0.0206 -0.0456,-0.006 -0.0892,-0.0108 -0.13074,-0.0147 -0.0416,-0.004 -0.0811,-0.007 -0.11853,-0.008 -0.0374,-0.002 -0.0727,-0.002 -0.10583,-0.002 -0.0331,6.1e-4 -0.064,0.002 -0.0927,0.005 -0.0286,0.003 -0.055,0.007 -0.079,0.0129 -0.024,0.006 -0.0456,0.0125 -0.0648,0.0208 -0.0192,0.008 -0.036,0.018 -0.0502,0.0291 -0.0142,0.0111 -0.026,0.0237 -0.0351,0.0377 -0.14598,0.22503 0.37364,0.83621 1.88912,2.10002 v 0 0 0 0 0 0 l 0.14944,0.12478 0.14943,0.12479 0.14944,0.12479 0.14944,0.12479" id="path_z-2" sodipodi:nodetypes="cccccccccccccccccccsssssssscsssssssssscssssssssssssssssssccccccccccc"/>
    <path style="display:inline;fill:none;fill-rule:evenodd;stroke:#fa0000;stroke-width:0.265;stroke-linecap:butt;stroke-linejoin:miter;stroke-miterlimit:4;stroke-dasharray:none;stroke-opacity:1" d="m 196.73136,152.34062 c -11.09246,1.25077 -18.15843,-29.30761 -15.50231,-3.44393 v 0 0 0 0 0 0 c -2.40373,-3.5258 -4.17217,-12.05582 -8.9938,3.46442" id="path_m-8" sodipodi:nodetypes="ccccccccc"/>
    <path style="display:inline;fill:none;fill-rule:evenodd;stroke:#fa0000;stroke-width:0.264583px;stroke-linecap:butt;stroke-linejoin:miter;stroke-opacity:1" d="m 153.01458,163.34765 c -0.0317,0.004 -0.0636,0.009 -0.0955,0.0155 -0.0319,0.006 -0.064,0.0138 -0.096,0.0224 -0.0321,0.009 -0.0642,0.0183 -0.0963,0.029 -0.0321,0.0108 -0.0642,0.0226 -0.0962,0.0354 -0.032,0.0128 -0.064,0.0266 -0.0959,0.0414 -0.0319,0.0148 -0.0636,0.0305 -0.0952,0.0471 -0.0316,0.0166 -0.0631,0.0342 -0.0943,0.0526 -0.0312,0.0184 -0.0623,0.0377 -0.093,0.0577 -0.24616,0.16052 -0.47576,0.3727 -0.66325,0.61114 -0.37497,0.47686 -0.5815,1.05873 -0.41512,1.54227 0.8274,2.40463 6.20905,4.26009 7.36369,1.99434 0.53667,-1.05311 -0.25762,-2.23877 -1.47928,-3.12444 -0.61083,-0.44283 -1.3285,-0.81067 -2.04006,-1.04944 -0.35578,-0.11938 -0.71004,-0.20649 -1.04865,-0.25459 -0.0423,-0.006 -0.0844,-0.0114 -0.12621,-0.0162 -0.0418,-0.005 -0.0833,-0.009 -0.12459,-0.0125 -0.0412,-0.004 -0.0822,-0.006 -0.12279,-0.009 -0.0406,-0.002 -0.0809,-0.004 -0.12082,-0.005 -0.0399,-9.2e-4 -0.0795,-0.001 -0.1187,-7.6e-4 -0.0392,4.2e-4 -0.078,0.002 -0.1164,0.003 -0.0384,0.002 -0.0764,0.004 -0.11394,0.007 -0.0375,0.003 -0.0747,0.007 -0.11132,0.0116 z" id="path_o-7" sodipodi:nodetypes="sssssssssssssssssssssss"/>
    <path id="path_zmo-6" style="display:inline;fill:none;fill-rule:evenodd;stroke:#fa0000;stroke-width:0.264583px;stroke-linecap:butt;stroke-linejoin:miter;stroke-opacity:1" d="m 194.64112,181.83455 c -0.0317,0.004 -0.0636,0.009 -0.0955,0.0155 -0.0319,0.006 -0.064,0.0138 -0.096,0.0224 -0.0321,0.009 -0.0642,0.0183 -0.0963,0.029 -0.0321,0.0108 -0.0642,0.0226 -0.0962,0.0354 -0.032,0.0128 -0.064,0.0266 -0.0959,0.0414 -0.0319,0.0148 -0.0636,0.0305 -0.0952,0.0471 -0.0316,0.0166 -0.0631,0.0342 -0.0943,0.0526 -0.0312,0.0184 -0.0623,0.0377 -0.093,0.0577 -0.24616,0.16052 -0.47576,0.3727 -0.66325,0.61114 -0.37497,0.47686 -0.5815,1.05873 -0.41512,1.54227 0.8274,2.40463 6.20905,4.26009 7.36369,1.99434 0.53667,-1.05311 -0.25762,-2.23877 -1.47928,-3.12444 -0.61083,-0.44283 -1.3285,-0.81067 -2.04006,-1.04944 -0.35578,-0.11938 -0.71004,-0.20649 -1.04865,-0.25459 -0.0423,-0.006 -0.0844,-0.0114 -0.12621,-0.0162 -0.0418,-0.005 -0.0833,-0.009 -0.12459,-0.0125 -0.0412,-0.004 -0.0822,-0.006 -0.12279,-0.009 -0.0406,-0.002 -0.0809,-0.004 -0.12082,-0.005 -0.0399,-9.2e-4 -0.0795,-0.001 -0.1187,-7.6e-4 -0.0392,4.2e-4 -0.078,0.002 -0.1164,0.003 -0.0384,0.002 -0.0764,0.004 -0.11394,0.007 -0.0375,0.003 -0.0747,0.007 -0.11132,0.0116 z m -3.67004,6.56071 c -0.0867,0.01 -0.17307,0.0176 -0.25924,0.0235 -0.0862,0.006 -0.17208,0.01 -0.25775,0.0121 -0.0857,0.002 -0.17108,0.002 -0.25624,9.9e-4 -0.0852,-0.001 -0.17007,-0.005 -0.25472,-0.01 -0.0847,-0.005 -0.16904,-0.0119 -0.25318,-0.0205 -0.0841,-0.009 -0.16801,-0.0189 -0.25162,-0.0309 -0.0836,-0.012 -0.16696,-0.0257 -0.25005,-0.0411 -0.0831,-0.0153 -0.16591,-0.0323 -0.24846,-0.0509 -0.0825,-0.0186 -0.16484,-0.0388 -0.24686,-0.0606 -0.082,-0.0218 -0.16376,-0.0451 -0.24523,-0.07 -0.0815,-0.0249 -0.16268,-0.0512 -0.2436,-0.0791 -0.0809,-0.0279 -0.16157,-0.0572 -0.24194,-0.088 -0.0804,-0.0308 -0.16047,-0.063 -0.24028,-0.0966 -0.0798,-0.0336 -0.15934,-0.0686 -0.23859,-0.10493 -0.0792,-0.0363 -0.1582,-0.074 -0.23688,-0.11305 -0.0787,-0.039 -0.15707,-0.0793 -0.23517,-0.12091 -1.2496,-0.66536 -2.42517,-1.65541 -3.51557,-2.79783 -2.18081,-2.28484 -4.02098,-5.17914 -5.43149,-7.30428 -2.82104,-4.25029 -3.9235,-5.42397 -2.59544,7.50787 v 0 0 0 0 0 0 c -1.20186,-1.76289 -2.24491,-4.77685 -3.59019,-5.41005 -0.67264,-0.3166 -1.42084,-0.038 -2.30223,1.28974 -1.02277,1.69818 -1.59359,3.15467 -2.2322,4.94944 -0.0696,0.1973 -0.13989,0.40004 -0.21088,0.60831 -0.0355,0.10413 -0.0712,0.20965 -0.10702,0.31657 -0.0359,0.10692 -0.0719,0.21524 -0.10808,0.32497 -0.0362,0.10973 -0.0726,0.22087 -0.10916,0.33344 -0.0366,0.11257 -0.0733,0.22657 -0.11025,0.342 -0.0369,0.11544 -0.074,0.23231 -0.11134,0.35064 -0.0373,0.11833 -0.0748,0.23812 -0.11245,0.35937 m -2.87257,-5.32747 -0.14599,0.0498 -0.14598,0.0498 -0.14599,0.0498 -0.14598,0.0498 -0.14599,0.0498 -0.14598,0.0498 -0.14599,0.0498 -0.14598,0.0498 c -5.46066,1.8628 -11.14187,3.80079 -16.20437,5.5278 l -0.14599,0.0498 -0.14598,0.0498 -0.14599,0.0498 -0.14598,0.0498 -0.14599,0.0498 -0.14598,0.0498 -0.14599,0.0498 -0.14598,0.0498 -0.14599,0.0498 c -3.32842,1.01023 -5.34684,1.46535 -5.82547,1.20305 -0.0299,-0.0164 -0.0538,-0.0356 -0.0716,-0.0576 -0.0178,-0.022 -0.0296,-0.0469 -0.0352,-0.0747 -0.006,-0.0278 -0.005,-0.0584 0.002,-0.092 0.007,-0.0336 0.0195,-0.0701 0.0386,-0.1095 0.0191,-0.0395 0.0444,-0.0819 0.0761,-0.12726 0.0316,-0.0454 0.0696,-0.0938 0.11385,-0.14527 0.0443,-0.0514 0.0949,-0.10594 0.15196,-0.16351 0.057,-0.0576 0.12049,-0.11822 0.1904,-0.18198 2.3666,-1.84898 5.23913,-3.68319 8.13394,-5.39043 1.44741,-0.85362 2.90039,-1.6755 4.29849,-2.45161 0.69905,-0.38806 1.38438,-0.76467 2.04843,-1.12809 0.083,-0.0454 0.16568,-0.0906 0.24801,-0.13566 0.0823,-0.045 0.1643,-0.0898 0.24592,-0.13441 0.0816,-0.0446 0.16287,-0.089 0.24375,-0.13312 0.0809,-0.0442 0.16138,-0.0881 0.2415,-0.13183 0.0801,-0.0437 0.15983,-0.0872 0.23914,-0.1305 0.0793,-0.0433 0.15822,-0.0863 0.2367,-0.12917 0.0785,-0.0428 0.15656,-0.0854 0.23418,-0.12781 0.0776,-0.0424 0.15483,-0.0845 0.23157,-0.12642 -1.16733,0.30614 -2.65981,0.19908 -4.14719,-0.0547 -1.48738,-0.25381 -2.96966,-0.65436 -4.11659,-0.93521 -0.0717,-0.0175 -0.14206,-0.0346 -0.21104,-0.0512 -0.069,-0.0165 -0.13657,-0.0326 -0.20269,-0.048 -0.0661,-0.0154 -0.13077,-0.0302 -0.19387,-0.0444 -0.0631,-0.0142 -0.12464,-0.0277 -0.18456,-0.0404 -0.0599,-0.0128 -0.11819,-0.0248 -0.17476,-0.0361 -0.0566,-0.0112 -0.11142,-0.0217 -0.16448,-0.0313 -0.0531,-0.01 -0.10433,-0.0183 -0.15372,-0.0262 -0.0494,-0.008 -0.0969,-0.0147 -0.14248,-0.0206 -0.0456,-0.006 -0.0892,-0.0108 -0.13074,-0.0147 -0.0416,-0.004 -0.0811,-0.007 -0.11853,-0.008 -0.0374,-0.002 -0.0727,-0.002 -0.10583,-0.002 -0.0331,6.1e-4 -0.064,0.002 -0.0927,0.005 -0.0286,0.003 -0.055,0.007 -0.079,0.0129 -0.024,0.006 -0.0456,0.0125 -0.0648,0.0208 -0.0192,0.008 -0.036,0.018 -0.0502,0.0291 -0.0142,0.0111 -0.026,0.0237 -0.0351,0.0377 -0.14598,0.22503 0.37364,0.83621 1.88912,2.10002 v 0 0 0 0 0 0 l 0.14944,0.12478 0.14943,0.12479 0.14944,0.12479 0.14944,0.12479"/>
    <path style="display:inline;fill:none;fill-rule:evenodd;stroke:#fa0000;stroke-width:0.264583px;stroke-linecap:butt;stroke-linejoin:miter;stroke-opacity:1" d="m 51.99159,133.96051 c -1.01482,0.12709 -2.1737,1.48748 -1.84094,2.45456 0.82742,2.40462 6.20906,4.26009 7.3637,1.99434 1.07334,-2.10621 -3.17716,-4.74266 -5.52276,-4.4489 z" id="path_o_4fff-9"/>
    <path id="path_oo-0" style="display:inline;fill:none;fill-rule:evenodd;stroke:#fa0000;stroke-width:0.264583px;stroke-linecap:butt;stroke-linejoin:miter;stroke-opacity:1" d="m 71.308204,160.3323 c -0.67955,0.0462 -1.24631,0.50514 -1.58923,0.9395 -0.37497,0.47686 -0.5815,1.05873 -0.41512,1.54227 0.8274,2.40463 6.20905,4.26009 7.36369,1.99434 0.53667,-1.05311 -0.25762,-2.23877 -1.47928,-3.12444 -1.02803,-0.66984 -2.61418,-1.44098 -3.5805,-1.36525 z m -20.98808,-0.58786 c -0.67955,0.0462 -1.24631,0.50514 -1.58923,0.9395 -0.37497,0.47686 -0.5815,1.05873 -0.41512,1.54227 0.8274,2.40463 6.20905,4.26009 7.36369,1.99434 0.53667,-1.05311 -0.25762,-2.23877 -1.47928,-3.12444 -1.02803,-0.66984 -2.61418,-1.44098 -3.5805,-1.36525"/>
    <path id="path_loops_and_row-9" style="display:inline;fill:none;fill-rule:evenodd;stroke:#fa0000;stroke-width:0.264583px;stroke-linecap:butt;stroke-linejoin:miter;stroke-opacity:1" d="m 69.493951,235.77402 c 4.26465,-2.16603 8.03875,-4.6591 6.39876,-10.76156 m 34.902349,-4.94451 c 4.20636,2.07246 4.41244,5.62056 6.1787,5.50176 5.05353,-0.33988 3.88911,1.66988 1.38347,4.96896 m 28.21274,0.29085 c -3.39981,-1.27715 -6.78975,-2.62667 -9.01644,-12.50668 m -3.19939,11.92497 c 2.26308,-2.91133 2.95805,-4.08079 1.69823,-10.12358 m -26.00823,8.87789 c -1.01481,0.12709 -2.17369,1.48748 -1.84093,2.45456 0.82742,2.40462 6.20905,4.26009 7.36369,1.99434 1.07334,-2.10621 -3.17716,-4.74266 -5.52276,-4.4489 z m -6.22955,2.4091 c -1.79297,-9.03139 2.54741,-7.40443 6.45103,-5.52098 0.89259,-2.49625 0.94836,-5.31793 1.43014,-7.47356 m -50.702259,8.84751 c 0.40429,6.72331 3.53701,9.77167 7.89998,10.1611 m 22.99614,-15.32136 c 3.15961,6.17814 0.13404,8.95444 -4.65364,10.76156 M 142.2603,219.49068 c -1.09138,1.10449 -0.0783,3.91752 1.38069,4.44889 1.5994,0.5825 4.53501,-1.07615 4.29549,-2.76138 -0.27775,-1.95426 -4.28878,-3.09159 -5.67618,-1.68751 z m 9.45117,-2.669 c 0.91062,4.92626 1.33412,10.35235 -2.95548,12.47848 m 4.79445,-11.55903 c 4.8519,2.1638 8.19405,5.88165 7.06488,10.03913 m -64.653759,-5.96718 c 0.20759,3.25156 2.29155,5.30835 2.09799,7.42928 -0.45498,4.98529 0.65844,7.02596 4.403999,3.97025 m -48.675669,4.59738 c 1.21428,-4.37114 0.0135,-11.40157 6.90539,-13.99846 m 66.577169,-3.58408 c 2.54555,8.54487 3.09878,11.11001 6.03289,12.27209 m 28.10014,-2.83343 c 8.29602,-2.11926 11.7959,-8.23529 15.41521,-14.2518 m -100.175389,7.79676 c 6.3303,0.63873 5.88749,5.96652 7.39331,9.94527 m 34.921089,-0.9664 c 4.30139,0.18301 9.74285,1.66082 7.36872,-4.91234 -0.97351,-2.69534 1.81915,-5.61572 1.84472,-8.40119 m -62.769389,9.05183 c -1.59229,-1.16994 -0.74271,-5.0523 1.07387,-5.82959 1.62997,-0.69744 4.53254,1.14387 4.4489,2.9148 -0.0982,2.07927 -3.8453,4.14731 -5.52277,2.91479 z"/>
    <path id="path_mix-8" style="display:inline;fill:none;fill-rule:evenodd;stroke:#fa0000;stroke-width:0.264583px;stroke-linecap:butt;stroke-linejoin:miter;stroke-opacity:1" d="m 85.334651,267.43104 c 0,0 -0.81104,-12.36837 3.60355,-15.01482 2.04073,-1.22336 6.90682,1.80178 6.90682,1.80178 m 43.843249,3.30326 c 0,0 -6.67823,0.76149 -6.90681,3.30326 -0.19907,2.21362 5.40533,3.90385 5.40533,3.90385 m -41.398639,20.35602 c 0,1.90726 -1.4117,3.45341 -3.15311,3.45341 -1.74142,0 -3.15311,-1.54615 -3.15311,-3.45341 0,-1.90727 1.41169,-3.45341 3.15311,-3.45341 1.74141,0 3.15311,1.54615 3.15311,3.45341 m -10.85291,-20.51747 c 0,0 -9.79467,3.74329 -9.60948,8.26945 0.1771,4.32847 9.90978,8.4083 9.90978,8.4083 M 150.49894,262.6263 c 0,0 4.74623,-4.98011 7.50741,-4.20415 0.11056,0.0311 0.21627,0.0845 0.31742,0.15851 0.10115,0.074 0.19773,0.16844 0.29005,0.28152 0.0923,0.11307 0.18038,0.24475 0.26447,0.39314 0.0841,0.14838 0.1642,0.31347 0.24065,0.49337 0.0764,0.17989 0.14922,0.3746 0.21863,0.58221 0.0694,0.20762 0.13542,0.42815 0.19837,0.65968 0.0629,0.23154 0.12281,0.47409 0.1799,0.72576 0.0571,0.25167 0.11138,0.51245 0.1632,0.78045 0.0518,0.26799 0.10115,0.54321 0.14829,0.82375 0.0471,0.28053 0.0921,0.56639 0.13515,0.85567 0.043,0.28927 0.0842,0.58197 0.12379,0.8762 0.0396,0.29422 0.0775,0.58997 0.1142,0.88535 0.0367,0.29538 0.072,0.59038 0.10641,0.88311 0.0344,0.29273 0.0677,0.5832 0.10038,0.86949 0.0327,0.28629 0.0646,0.56842 0.0961,0.84448 0.0315,0.27606 0.0627,0.54605 0.0937,0.80808 0.031,0.26203 0.0619,0.51609 0.093,0.7603 0.0311,0.2442 0.0623,0.47855 0.0941,0.70113 0.0317,0.22259 0.064,0.43341 0.097,0.63058 0.033,0.19717 0.0667,0.38069 0.10159,0.54864 0.0348,0.16796 0.0707,0.32037 0.10801,0.45532 0.0373,0.13495 0.0759,0.25246 0.11623,0.35061 0.0403,0.0982 0.0823,0.17695 0.1262,0.23451 0.0439,0.0575 0.0898,0.0939 0.13797,0.10703 0.0482,0.0132 0.0986,0.003 0.15151,-0.0318 0.053,-0.035 0.10847,-0.0951 0.16683,-0.18209 0.0584,-0.087 0.11957,-0.20095 0.18392,-0.34374 0.0644,-0.14278 0.13186,-0.3144 0.20281,-0.51675 0.0709,-0.20236 0.14533,-0.43545 0.22345,-0.70117 0.0781,-0.26572 0.15999,-0.56408 0.24589,-0.89696 0.0859,-0.33289 0.17584,-0.7003 0.27011,-1.10415 0.0943,-0.40384 0.19286,-0.84411 0.29609,-1.32271 1.10109,-5.10503 3.30326,-15.31511 3.30326,-15.31511 m -24.02371,3.60356 c 0,0 -7.20711,-12.91275 -0.3003,-7.20712 2.30227,1.90188 6.17354,2.81083 6.90682,5.70563 m 0,0 c 1.24606,4.91916 -2.62432,10.08202 -5.70563,14.11393 -1.90857,2.49737 -4.59969,6.89921 -7.50741,5.70563 -2.61915,-1.07513 -1.20119,-8.4083 -1.20119,-8.4083 m -27.19314,-8.70105 c 0,0 -19.136839,11.5055 -16.049519,18.31054 3.26947,7.20653 16.395829,3.88923 23.723399,0.90088 2.42586,-0.98931 6.44758,-6.89676 6.44758,-6.89676 m -19.36032,3.29321 c 0,0 2.62032,-8.62959 6.30622,-9.30918 m 0,0 c 2.40322,-0.4431 4.14823,5.79182 6.00593,4.20414 3.64141,-3.11213 -6.30622,-12.91274 -6.30622,-12.91274 m 14.11392,12.31215 c 0,0 6.38702,11.70908 3.00297,15.91571 -4.26837,5.30589 -15.59926,5.41 -20.42015,0.60059 -2.62296,-2.61672 0.30029,-11.11097 0.30029,-11.11097 M 79.929311,261.94698 c 0,1.74142 -1.47892,3.15312 -3.30326,3.15312 -1.82433,0 -3.30325,-1.4117 -3.30325,-3.15312 0,-1.74141 1.47891,-3.15311 3.30325,-3.15311 1.82434,0 4.21585,0.95541 4.21585,2.69682" sodipodi:nodetypes="csccsccsssccsccsssssssssssssssssssssssssssssssssccsccssccssccccsccssccsssc"/>
    <path d="m 115.16671,81.50116 0.375,0.35 0.35,0.35 0.3,0.4 0.275,0.425 0.25,0.45 0.2,0.45 0.15,0.475 0.125,0.5 0.075,0.5 0.05,0.5 v 0.5 l -0.05,0.5 -0.075,0.475 -0.15,0.5 -0.15,0.475 -0.225,0.45 -0.225,0.45 -0.3,0.4 -0.3,0.4 -0.35,0.375 -0.375,0.325 -0.4,0.3 -0.425,0.275 -0.45,0.225 -0.475,0.175 -0.475,0.175 -0.5,0.1 -0.475,0.075 -0.525,0.025 -0.5,-0.025 -0.5,-0.05 -0.475,-0.1 -0.5,-0.125 -0.45,-0.175 -0.47499,-0.225 -0.42501,-0.25 -0.4,-0.3 -0.4,-0.325 -0.35,-0.35 -0.325,-0.375 -0.29999,-0.425 -0.25,-0.425 -0.225,-0.45 -0.175,-0.475 -0.15,-0.475 -0.1,-0.5 -0.05,-0.5 -0.025,-0.5 0.025,-0.5 0.075,-0.5 0.1,-0.475 0.15,-0.5 0.2,-0.45 0.225,-0.45 0.25,-0.425 0.29999,-0.4 0.325,-0.4 0.375,-0.35 0.375,-0.3 0.425,-0.3 0.425,-0.25 0.475,-0.2 0.475,-0.175 0.475,-0.125 0.5,-0.1 0.5,-0.05 h 0.5 l 0.5,0.025 0.5,0.1 0.475,0.1 0.475,0.175 0.475,0.175 0.45,0.25 0.4,0.275 0.4,0.3 m -0.625,0.775 0.35,0.325 0.325,0.375 0.3,0.4 0.25,0.45 0.2,0.45 0.175,0.475 0.1,0.475 0.075,0.5 v 0.5 l -0.025,0.5 -0.1,0.475 -0.125,0.5 -0.2,0.45 -0.225,0.45 -0.275,0.425 -0.3,0.375 -0.35,0.375 -0.375,0.3 -0.425,0.3 -0.425,0.225 -0.45,0.2 -0.5,0.15 -0.475,0.1 -0.5,0.05 h -0.5 l -0.5,-0.05 -0.475,-0.1 -0.475,-0.15 -0.475,-0.2 -0.425,-0.225 -0.425,-0.3 -0.375,-0.3 -0.35,-0.375 -0.3,-0.375 -0.275,-0.425 -0.225,-0.45 -0.175,-0.45 -0.15,-0.5 -0.075,-0.475 -0.05,-0.5 0.025,-0.5 0.05,-0.5 0.125,-0.475 0.15,-0.475 0.2,-0.45 0.25,-0.45 0.3,-0.4 0.325,-0.375 0.375,-0.325 0.375,-0.3 0.425,-0.275 0.45,-0.2 0.475,-0.175 0.475,-0.125 0.5,-0.075 0.5,-0.025 0.5,0.025 0.5,0.075 0.475,0.125 0.475,0.175 0.45,0.2 0.425,0.275 0.4,0.3" style="display:inline;fill:none;stroke:#fc0000;stroke-width:0.3;stroke-linecap:butt;stroke-linejoin:miter;stroke-miterlimit:5;stroke-dasharray:none;stroke-opacity:1" id="two_circles-4"/>
    <path id="self_intersect_0" style="display:inline;fill:none;stroke:#fe0000;stroke-width:0.228813;stroke-linejoin:round;stroke-miterlimit:5;stroke-opacity:1;paint-order:stroke fill markers" d="m 174.9673,111.09371 c -14.75546,-18.768843 -18.75562,14.88627 3.55819,-15.797668 24.70694,6.455068 -5.34048,-20.091476 4.75408,14.152068 m -4.047,-6.31018 c 11.73628,-0.3177 30.24231,-4.449285 4.90603,-13.105992 -10.09805,-3.450222 18.79149,-11.401439 0,19.818822 m -9.18153,-0.59549 c -7.61761,-29.60478 -11.48868,-6.41724 -0.69247,-13.830032 9.66323,-5.610663 -5.15314,-10.636024 4.32886,7.671802"/>
  </g>
  <g inkscape:label="Layer 1" inkscape:groupmode="layer" id="layer1" style="display:inline">
    <path id="path_w_duplicates" style="display:inline;fill:none;stroke:#000000;stroke-width:0.25;stroke-linecap:square;stroke-linejoin:bevel;stroke-miterlimit:4;stroke-dasharray:none;stroke-opacity:1;paint-order:stroke fill markers" d="m 75.820459,11.556793 v 0 0 0 0 0 m -5.044043,1.090913 8.234037,6.861701 v 0 0 0 0 0 l 4.574466,-6.861701 5.489358,6.404255 9.148932,-5.946808 v 0 0 0 0 0 m -8.4125,-2.0625 v 0" sodipodi:nodetypes="ccccccccccccccccccccccc"/>
    <path id="path_line" style="display:inline;fill:none;stroke:#000000;stroke-width:0.25;stroke-linecap:square;stroke-linejoin:bevel;stroke-miterlimit:4;stroke-dasharray:none;stroke-opacity:1;paint-order:stroke fill markers" d="m 70.056951,35.006459 35.306809,3.76965 3.6e-4,-9.6e-5 20.5759,2.603683 3.7e-4,-9.6e-5 14.27366,1.711429 m -0.6768,-1.064292 -5e-5,-1.64e-4 z"/>
    <path id="path_simple_loop" style="fill:none;fill-rule:evenodd;stroke:#000000;stroke-width:0.264583px;stroke-linecap:butt;stroke-linejoin:miter;stroke-opacity:1" d="m 60.650375,102.78901 7.7047,4.14869 13.8066,-8.684559 m 0.5127,-2.55468 v -8.89009 l -3.556,-7.11204 m -19.675,0.66198 13.6315,-1.18535 4.4926,-0.17519 m -19.7853,1.29123 v 17.18747 l 1.778,5.926699"/>
    <path d="m 114.3154,64.321594 0.375,0.35 0.35,0.35 0.3,0.4 0.275,0.425 0.25,0.45 0.2,0.45 0.15,0.475 0.125,0.5 0.075,0.5 0.05,0.5 v 0.5 l -0.05,0.5 -0.075,0.475 -0.15,0.5 -0.15,0.475 -0.225,0.45 -0.225,0.45 -0.3,0.4 -0.3,0.4 -0.35,0.375 -0.375,0.325 -0.4,0.3 -0.425,0.275 -0.45,0.225 -0.475,0.175 -0.475,0.175 -0.5,0.1 -0.475,0.075 -0.525,0.025 -0.5,-0.025 -0.5,-0.05 -0.475,-0.1 -0.5,-0.125 -0.45,-0.175 -0.47499,-0.225 -0.42501,-0.25 -0.4,-0.3 -0.4,-0.325 -0.35,-0.35 -0.325,-0.375 -0.29999,-0.425 -0.25,-0.425 -0.225,-0.45 -0.175,-0.475 -0.15,-0.475 -0.1,-0.5 -0.05,-0.5 -0.025,-0.5 0.025,-0.5 0.075,-0.5 0.1,-0.475 0.15,-0.5 0.2,-0.45 0.225,-0.45 0.25,-0.425 0.29999,-0.4 0.325,-0.4 0.375,-0.35 0.375,-0.3 0.425,-0.3 0.425,-0.25 0.475,-0.2 0.475,-0.175 0.475,-0.125 0.5,-0.1 0.5,-0.05 h 0.5 l 0.5,0.025 0.5,0.1 0.475,0.1 0.475,0.175 0.475,0.175 0.45,0.25 0.4,0.275 0.4,0.3 m -0.625,0.775 0.35,0.325 0.325,0.375 0.3,0.4 0.25,0.45 0.2,0.45 0.175,0.475 0.1,0.475 0.075,0.5 v 0.5 l -0.025,0.5 -0.1,0.475 -0.125,0.5 -0.2,0.45 -0.225,0.45 -0.275,0.425 -0.3,0.375 -0.35,0.375 -0.375,0.3 -0.425,0.3 -0.425,0.225 -0.45,0.2 -0.5,0.15 -0.475,0.1 -0.5,0.05 h -0.5 l -0.5,-0.05 -0.475,-0.1 -0.475,-0.15 -0.475,-0.2 -0.425,-0.225 -0.425,-0.3 -0.375,-0.3 -0.35,-0.375 -0.3,-0.375 -0.275,-0.425 -0.225,-0.45 -0.175,-0.45 -0.15,-0.5 -0.075,-0.475 -0.05,-0.5 0.025,-0.5 0.05,-0.5 0.125,-0.475 0.15,-0.475 0.2,-0.45 0.25,-0.45 0.3,-0.4 0.325,-0.375 0.375,-0.325 0.375,-0.3 0.425,-0.275 0.45,-0.2 0.475,-0.175 0.475,-0.125 0.5,-0.075 0.5,-0.025 0.5,0.025 0.5,0.075 0.475,0.125 0.475,0.175 0.45,0.2 0.425,0.275 0.4,0.3" style="display:inline;fill:none;stroke:#000000;stroke-width:0.3;stroke-linecap:butt;stroke-linejoin:miter;stroke-miterlimit:5;stroke-dasharray:none;stroke-opacity:1" id="two_circles"/>
    <path id="self_intersect" style="fill:none;stroke:#010000;stroke-width:0.228813;stroke-linejoin:round;stroke-miterlimit:5;stroke-opacity:1;paint-order:stroke fill markers" d="m 174.9673,111.09371 c -14.75546,-18.76884 -18.75562,14.88627 3.55819,-15.797665 24.70694,6.455065 -5.34048,-20.091476 4.75408,14.152065 m -4.047,-6.31018 c 11.73628,-0.3177 30.24231,-4.449282 4.90603,-13.105989 -10.09805,-3.450222 18.79149,-11.401439 0,19.818819 m -9.18153,-0.59549 c -7.61761,-29.604777 -11.48868,-6.41724 -0.69247,-13.830029 9.66323,-5.610663 -5.15314,-10.636024 4.32886,7.671799"/>
    <path style="fill:none;fill-rule:evenodd;stroke:#000000;stroke-width:0.265;stroke-linecap:butt;stroke-linejoin:miter;stroke-miterlimit:4;stroke-dasharray:none;stroke-opacity:1" d="m 142.45094,142.52576 -0.14599,0.0498 -0.14598,0.0498 -0.14599,0.0498 -0.14598,0.0498 -0.14599,0.0498 -0.14598,0.0498 -0.14599,0.0498 -0.14598,0.0498 c -5.46066,1.86281 -11.14187,3.80079 -16.20437,5.5278 l -0.14599,0.0498 -0.14598,0.0498 -0.14599,0.0498 -0.14598,0.0498 -0.14599,0.0498 -0.14598,0.0498 -0.14599,0.0498 -0.14598,0.0498 -0.14599,0.0498 c -3.32842,1.01024 -5.34684,1.46535 -5.82547,1.20305 -0.0299,-0.0164 -0.0538,-0.0356 -0.0716,-0.0576 -0.0178,-0.022 -0.0296,-0.0469 -0.0352,-0.0747 -0.006,-0.0278 -0.005,-0.0584 0.002,-0.092 0.007,-0.0336 0.0195,-0.0701 0.0386,-0.10949 0.0191,-0.0395 0.0444,-0.0819 0.0761,-0.12727 0.0316,-0.0454 0.0696,-0.0938 0.11385,-0.14527 0.0443,-0.0515 0.0949,-0.10593 0.15196,-0.1635 0.057,-0.0576 0.12049,-0.11822 0.1904,-0.18199 2.3666,-1.84898 5.23913,-3.68319 8.13394,-5.39043 1.44741,-0.85362 2.90039,-1.6755 4.29849,-2.45161 0.69905,-0.38805 1.38438,-0.76467 2.04843,-1.12809 0.083,-0.0454 0.16568,-0.0906 0.24801,-0.13566 0.0823,-0.045 0.1643,-0.0898 0.24592,-0.1344 0.0816,-0.0446 0.16287,-0.089 0.24375,-0.13313 0.0809,-0.0442 0.16138,-0.0881 0.2415,-0.13182 0.0801,-0.0437 0.15983,-0.0872 0.23914,-0.13051 0.0793,-0.0433 0.15822,-0.0863 0.2367,-0.12917 0.0785,-0.0428 0.15656,-0.0854 0.23418,-0.12781 0.0776,-0.0424 0.15483,-0.0845 0.23157,-0.12642 -1.16733,0.30614 -2.65981,0.19908 -4.14719,-0.0547 -1.48738,-0.25381 -2.96966,-0.65436 -4.11659,-0.9352 -0.0717,-0.0175 -0.14206,-0.0346 -0.21104,-0.0512 -0.069,-0.0165 -0.13657,-0.0326 -0.20269,-0.048 -0.0661,-0.0154 -0.13077,-0.0302 -0.19387,-0.0444 -0.0631,-0.0142 -0.12464,-0.0277 -0.18456,-0.0404 -0.0599,-0.0128 -0.11819,-0.0248 -0.17476,-0.0361 -0.0566,-0.0112 -0.11142,-0.0217 -0.16448,-0.0313 -0.0531,-0.01 -0.10433,-0.0183 -0.15372,-0.0262 -0.0494,-0.008 -0.0969,-0.0147 -0.14248,-0.0206 -0.0456,-0.006 -0.0892,-0.0108 -0.13074,-0.0147 -0.0416,-0.004 -0.0811,-0.007 -0.11853,-0.008 -0.0374,-0.002 -0.0727,-0.002 -0.10583,-0.002 -0.0331,6e-4 -0.064,0.002 -0.0927,0.005 -0.0286,0.003 -0.055,0.007 -0.079,0.0129 -0.024,0.006 -0.0456,0.0125 -0.0648,0.0208 -0.0192,0.008 -0.036,0.018 -0.0502,0.0291 -0.0142,0.0111 -0.026,0.0237 -0.0351,0.0377 -0.14598,0.22502 0.37364,0.83621 1.88912,2.10001 v 0 0 0 0 0 0 l 0.14944,0.12479 0.14943,0.12479 0.14944,0.12478 0.14944,0.12479" id="path_z" sodipodi:nodetypes="cccccccccccccccccccsssssssscsssssssssscssssssssssssssssssccccccccccc"/>
    <path style="display:inline;fill:none;fill-rule:evenodd;stroke:#000000;stroke-width:0.265;stroke-linecap:butt;stroke-linejoin:miter;stroke-miterlimit:4;stroke-dasharray:none;stroke-opacity:1" d="m 196.74546,152.35434 c -11.09246,1.25077 -18.15843,-29.30761 -15.50231,-3.44393 v 0 0 0 0 0 0 c -2.40373,-3.5258 -4.17217,-12.05582 -8.9938,3.46442" id="path_m" sodipodi:nodetypes="ccccccccc"/>
    <path style="display:inline;fill:none;fill-rule:evenodd;stroke:#010000;stroke-width:0.264583px;stroke-linecap:butt;stroke-linejoin:miter;stroke-opacity:1" d="m 153.02868,163.36137 c -0.0317,0.004 -0.0636,0.009 -0.0955,0.0155 -0.0319,0.006 -0.064,0.0138 -0.096,0.0224 -0.0321,0.009 -0.0642,0.0183 -0.0963,0.029 -0.0321,0.0108 -0.0642,0.0226 -0.0962,0.0354 -0.032,0.0128 -0.064,0.0266 -0.0959,0.0414 -0.0319,0.0148 -0.0636,0.0305 -0.0952,0.0471 -0.0316,0.0166 -0.0631,0.0342 -0.0943,0.0526 -0.0312,0.0184 -0.0623,0.0377 -0.093,0.0577 -0.24616,0.16052 -0.47576,0.3727 -0.66325,0.61114 -0.37497,0.47686 -0.5815,1.05873 -0.41512,1.54227 0.8274,2.40463 6.20905,4.26009 7.36369,1.99434 0.53667,-1.05311 -0.25762,-2.23877 -1.47928,-3.12444 -0.61083,-0.44283 -1.3285,-0.81067 -2.04006,-1.04944 -0.35578,-0.11938 -0.71004,-0.20649 -1.04865,-0.25459 -0.0423,-0.006 -0.0844,-0.0114 -0.12621,-0.0162 -0.0418,-0.005 -0.0833,-0.009 -0.12459,-0.0125 -0.0412,-0.004 -0.0822,-0.006 -0.12279,-0.009 -0.0406,-0.002 -0.0809,-0.004 -0.12082,-0.005 -0.0399,-9.2e-4 -0.0795,-10e-4 -0.1187,-7.6e-4 -0.0392,4.2e-4 -0.078,0.002 -0.1164,0.003 -0.0384,0.002 -0.0764,0.004 -0.11394,0.007 -0.0375,0.003 -0.0747,0.007 -0.11132,0.0116 z" id="path_o" sodipodi:nodetypes="sssssssssssssssssssssss"/>
    <path id="path_zmo" style="display:inline;fill:none;fill-rule:evenodd;stroke:#010000;stroke-width:0.264583px;stroke-linecap:butt;stroke-linejoin:miter;stroke-opacity:1" d="m 194.65522,181.84827 c -0.0317,0.004 -0.0636,0.009 -0.0955,0.0155 -0.0319,0.006 -0.064,0.0138 -0.096,0.0224 -0.0321,0.009 -0.0642,0.0183 -0.0963,0.029 -0.0321,0.0108 -0.0642,0.0226 -0.0962,0.0354 -0.032,0.0128 -0.064,0.0266 -0.0959,0.0414 -0.0319,0.0148 -0.0636,0.0305 -0.0952,0.0471 -0.0316,0.0166 -0.0631,0.0342 -0.0943,0.0526 -0.0312,0.0184 -0.0623,0.0377 -0.093,0.0577 -0.24616,0.16052 -0.47576,0.3727 -0.66325,0.61114 -0.37497,0.47686 -0.5815,1.05873 -0.41512,1.54227 0.8274,2.40463 6.20905,4.26009 7.36369,1.99434 0.53667,-1.05311 -0.25762,-2.23877 -1.47928,-3.12444 -0.61083,-0.44283 -1.3285,-0.81067 -2.04006,-1.04944 -0.35578,-0.11938 -0.71004,-0.20649 -1.04865,-0.25459 -0.0423,-0.006 -0.0844,-0.0114 -0.12621,-0.0162 -0.0418,-0.005 -0.0833,-0.009 -0.12459,-0.0125 -0.0412,-0.004 -0.0822,-0.006 -0.12279,-0.009 -0.0406,-0.002 -0.0809,-0.004 -0.12082,-0.005 -0.0399,-9.2e-4 -0.0795,-0.001 -0.1187,-7.6e-4 -0.0392,4.2e-4 -0.078,0.002 -0.1164,0.003 -0.0384,0.002 -0.0764,0.004 -0.11394,0.007 -0.0375,0.003 -0.0747,0.007 -0.11132,0.0116 z m -3.67004,6.56071 c -0.0867,0.01 -0.17307,0.0176 -0.25924,0.0235 -0.0862,0.006 -0.17208,0.01 -0.25775,0.0121 -0.0857,0.002 -0.17108,0.002 -0.25624,9.9e-4 -0.0852,-0.001 -0.17007,-0.005 -0.25472,-0.01 -0.0847,-0.005 -0.16904,-0.0119 -0.25318,-0.0205 -0.0841,-0.009 -0.16801,-0.0189 -0.25162,-0.0309 -0.0836,-0.012 -0.16696,-0.0257 -0.25005,-0.0411 -0.0831,-0.0153 -0.16591,-0.0323 -0.24846,-0.0509 -0.0825,-0.0186 -0.16484,-0.0388 -0.24686,-0.0606 -0.082,-0.0218 -0.16376,-0.0451 -0.24523,-0.07 -0.0815,-0.0249 -0.16268,-0.0512 -0.2436,-0.0791 -0.0809,-0.0279 -0.16157,-0.0572 -0.24194,-0.088 -0.0804,-0.0308 -0.16047,-0.063 -0.24028,-0.0966 -0.0798,-0.0336 -0.15934,-0.0686 -0.23859,-0.10493 -0.0792,-0.0363 -0.1582,-0.074 -0.23688,-0.11305 -0.0787,-0.039 -0.15707,-0.0793 -0.23517,-0.12091 -1.2496,-0.66536 -2.42517,-1.65541 -3.51557,-2.79783 -2.18081,-2.28484 -4.02098,-5.17914 -5.43149,-7.30428 -2.82104,-4.25029 -3.9235,-5.42397 -2.59544,7.50787 v 0 0 0 0 0 0 c -1.20186,-1.76289 -2.24491,-4.77685 -3.59019,-5.41005 -0.67264,-0.3166 -1.42084,-0.038 -2.30223,1.28974 -1.02277,1.69818 -1.59359,3.15467 -2.2322,4.94944 -0.0696,0.1973 -0.13989,0.40004 -0.21088,0.60831 -0.0355,0.10413 -0.0712,0.20965 -0.10702,0.31657 -0.0359,0.10692 -0.0719,0.21524 -0.10808,0.32497 -0.0362,0.10973 -0.0726,0.22087 -0.10916,0.33344 -0.0366,0.11257 -0.0733,0.22657 -0.11025,0.342 -0.0369,0.11544 -0.074,0.23231 -0.11134,0.35064 -0.0373,0.11833 -0.0748,0.23812 -0.11245,0.35937 m -2.87257,-5.32747 -0.14599,0.0498 -0.14598,0.0498 -0.14599,0.0498 -0.14598,0.0498 -0.14599,0.0498 -0.14598,0.0498 -0.14599,0.0498 -0.14598,0.0498 c -5.46066,1.8628 -11.14187,3.80079 -16.20437,5.5278 l -0.14599,0.0498 -0.14598,0.0498 -0.14599,0.0498 -0.14598,0.0498 -0.14599,0.0498 -0.14598,0.0498 -0.14599,0.0498 -0.14598,0.0498 -0.14599,0.0498 c -3.32842,1.01023 -5.34684,1.46535 -5.82547,1.20305 -0.0299,-0.0164 -0.0538,-0.0356 -0.0716,-0.0576 -0.0178,-0.022 -0.0296,-0.0469 -0.0352,-0.0747 -0.006,-0.0278 -0.005,-0.0584 0.002,-0.092 0.007,-0.0336 0.0195,-0.0701 0.0386,-0.1095 0.0191,-0.0395 0.0444,-0.0819 0.0761,-0.12726 0.0316,-0.0454 0.0696,-0.0938 0.11385,-0.14527 0.0443,-0.0514 0.0949,-0.10594 0.15196,-0.16351 0.057,-0.0576 0.12049,-0.11822 0.1904,-0.18198 2.3666,-1.84898 5.23913,-3.68319 8.13394,-5.39043 1.44741,-0.85362 2.90039,-1.6755 4.29849,-2.45161 0.69905,-0.38806 1.38438,-0.76467 2.04843,-1.12809 0.083,-0.0454 0.16568,-0.0906 0.24801,-0.13566 0.0823,-0.045 0.1643,-0.0898 0.24592,-0.13441 0.0816,-0.0446 0.16287,-0.089 0.24375,-0.13312 0.0809,-0.0442 0.16138,-0.0881 0.2415,-0.13183 0.0801,-0.0437 0.15983,-0.0872 0.23914,-0.1305 0.0793,-0.0433 0.15822,-0.0863 0.2367,-0.12917 0.0785,-0.0428 0.15656,-0.0854 0.23418,-0.12781 0.0776,-0.0424 0.15483,-0.0845 0.23157,-0.12642 -1.16733,0.30614 -2.65981,0.19908 -4.14719,-0.0547 -1.48738,-0.25381 -2.96966,-0.65436 -4.11659,-0.93521 -0.0717,-0.0175 -0.14206,-0.0346 -0.21104,-0.0512 -0.069,-0.0165 -0.13657,-0.0326 -0.20269,-0.048 -0.0661,-0.0154 -0.13077,-0.0302 -0.19387,-0.0444 -0.0631,-0.0142 -0.12464,-0.0277 -0.18456,-0.0404 -0.0599,-0.0128 -0.11819,-0.0248 -0.17476,-0.0361 -0.0566,-0.0112 -0.11142,-0.0217 -0.16448,-0.0313 -0.0531,-0.01 -0.10433,-0.0183 -0.15372,-0.0262 -0.0494,-0.008 -0.0969,-0.0147 -0.14248,-0.0206 -0.0456,-0.006 -0.0892,-0.0108 -0.13074,-0.0147 -0.0416,-0.004 -0.0811,-0.007 -0.11853,-0.008 -0.0374,-0.002 -0.0727,-0.002 -0.10583,-0.002 -0.0331,6.1e-4 -0.064,0.002 -0.0927,0.005 -0.0286,0.003 -0.055,0.007 -0.079,0.0129 -0.024,0.006 -0.0456,0.0125 -0.0648,0.0208 -0.0192,0.008 -0.036,0.018 -0.0502,0.0291 -0.0142,0.0111 -0.026,0.0237 -0.0351,0.0377 -0.14598,0.22503 0.37364,0.83621 1.88912,2.10002 v 0 0 0 0 0 0 l 0.14944,0.12478 0.14943,0.12479 0.14944,0.12479 0.14944,0.12479"/>
    <path style="display:inline;fill:none;fill-rule:evenodd;stroke:#010000;stroke-width:0.264583px;stroke-linecap:butt;stroke-linejoin:miter;stroke-opacity:1" d="m 52.005687,133.97423 c -1.014813,0.12709 -2.173693,1.48748 -1.840933,2.45456 0.82742,2.40462 6.209053,4.26009 7.363693,1.99434 1.07334,-2.10621 -3.17716,-4.74266 -5.52276,-4.4489 z" id="path_o_4fff"/>
    <path id="path_oo" style="display:inline;fill:none;fill-rule:evenodd;stroke:#010000;stroke-width:0.264583px;stroke-linecap:butt;stroke-linejoin:miter;stroke-opacity:1" d="M 71.3223 160.346 C 70.6428 160.392 70.076 160.851 69.7331 161.286 C 69.3581 161.762 69.1516 162.344 69.318 162.828 C 70.1454 165.232 75.527 167.088 76.6816 164.822 C 77.2183 163.769 76.424 162.583 75.2024 161.698 C 74.1743 161.028 72.5882 160.257 71.6219 160.332 Z M 50.484 159.751 C 49.6547 159.804 49.0879 160.263 48.745 160.698 C 48.37 161.175 48.1635 161.756 48.3299 162.24 C 49.1573 164.645 54.5389 166.5 55.6936 164.234 C 56.2302 163.181 55.4359 161.996 54.2143 161.11 C 53.1863 160.44 51.6001 159.669 50.484 159.751 Z"/>
    <path id="path_loops_and_row" style="fill:none;fill-rule:evenodd;stroke:#010000;stroke-width:0.264583px;stroke-linecap:butt;stroke-linejoin:miter;stroke-opacity:1" d="m 69.508046,235.78774 c 4.264653,-2.16603 8.038752,-4.6591 6.398766,-10.76156 m 34.902348,-4.94451 c 4.20636,2.07246 4.41244,5.62056 6.1787,5.50176 5.05353,-0.33988 3.88911,1.66988 1.38347,4.96896 m 28.21274,0.29085 c -3.39981,-1.27715 -6.78975,-2.62667 -9.01644,-12.50668 m -3.19939,11.92497 c 2.26308,-2.91133 2.95805,-4.08079 1.69823,-10.12358 m -26.00823,8.87789 c -1.01481,0.12709 -2.17369,1.48748 -1.84093,2.45456 0.82742,2.40462 6.20905,4.26009 7.36369,1.99434 1.07334,-2.10621 -3.17716,-4.74266 -5.52276,-4.4489 z m -6.22955,2.4091 c -1.79297,-9.03139 2.54741,-7.40443 6.45103,-5.52098 0.89259,-2.49625 0.94836,-5.31793 1.43014,-7.47356 m -50.702263,8.84751 c 0.404295,6.72331 3.537016,9.77167 7.899986,10.1611 m 22.996139,-15.32136 c 3.159604,6.17814 0.13404,8.95444 -4.653641,10.76156 M 142.2744,219.5044 c -1.09138,1.10449 -0.0783,3.91752 1.38069,4.44889 1.5994,0.5825 4.53501,-1.07615 4.29549,-2.76138 -0.27775,-1.95426 -4.28878,-3.09159 -5.67618,-1.68751 z m 9.45117,-2.669 c 0.91062,4.92626 1.33412,10.35235 -2.95548,12.47848 m 4.79445,-11.55903 c 4.8519,2.1638 8.19405,5.88165 7.06488,10.03913 M 95.975656,221.8268 c 0.20759,3.25156 2.291552,5.30835 2.097992,7.42928 -0.45498,4.98529 0.65844,7.02596 4.404002,3.97025 m -48.675667,4.59738 c 1.214273,-4.37114 0.01349,-11.40157 6.905383,-13.99846 m 66.577174,-3.58408 c 2.54555,8.54487 3.09878,11.11001 6.03289,12.27209 m 28.10014,-2.83343 c 8.29602,-2.11926 11.7959,-8.23529 15.41521,-14.2518 m -100.17539,7.79676 c 6.330295,0.63873 5.887487,5.96652 7.393307,9.94527 m 34.921093,-0.9664 c 4.30139,0.18301 9.74285,1.66082 7.36872,-4.91234 -0.97351,-2.69534 1.81915,-5.61572 1.84472,-8.40119 m -62.769389,9.05183 c -1.59229,-1.16994 -0.742709,-5.0523 1.073872,-5.82959 1.629962,-0.69744 4.532534,1.14387 4.4489,2.9148 -0.0982,2.07927 -3.845307,4.14731 -5.522772,2.91479 z"/>
    <path id="path_mix" style="fill:none;fill-rule:evenodd;stroke:#000000;stroke-width:0.264583px;stroke-linecap:butt;stroke-linejoin:miter;stroke-opacity:1" d="m 85.348746,267.44476 c 0,0 -0.81104,-12.36837 3.603553,-15.01482 2.04073,-1.22336 6.90682,1.80178 6.90682,1.80178 m 43.843251,3.30326 c 0,0 -6.67823,0.76149 -6.90681,3.30326 -0.19907,2.21362 5.40533,3.90385 5.40533,3.90385 m -41.398642,20.35602 c 0,1.90726 -1.411699,3.45341 -3.153109,3.45341 -1.74142,0 -3.15311,-1.54615 -3.15311,-3.45341 0,-1.90727 1.41169,-3.45341 3.15311,-3.45341 1.74141,0 3.153109,1.54615 3.153109,3.45341 M 85.949339,264.58064 c 0,0 -9.794673,3.74329 -9.609483,8.26945 0.1771,4.32847 9.909783,8.4083 9.909783,8.4083 m 64.263401,-18.61837 c 0,0 4.74623,-4.98011 7.50741,-4.20415 0.11056,0.0311 0.21627,0.0845 0.31742,0.15851 0.10115,0.074 0.19773,0.16844 0.29005,0.28152 0.0923,0.11307 0.18038,0.24475 0.26447,0.39314 0.0841,0.14838 0.1642,0.31347 0.24065,0.49337 0.0764,0.17989 0.14922,0.3746 0.21863,0.58221 0.0694,0.20762 0.13542,0.42815 0.19837,0.65968 0.0629,0.23154 0.12281,0.47409 0.1799,0.72576 0.0571,0.25167 0.11138,0.51245 0.1632,0.78045 0.0518,0.26799 0.10115,0.54321 0.14829,0.82375 0.0471,0.28053 0.0921,0.56639 0.13515,0.85567 0.043,0.28927 0.0842,0.58197 0.12379,0.8762 0.0396,0.29422 0.0775,0.58997 0.1142,0.88535 0.0367,0.29538 0.072,0.59038 0.10641,0.88311 0.0344,0.29273 0.0677,0.5832 0.10038,0.86949 0.0327,0.28629 0.0646,0.56842 0.0961,0.84448 0.0315,0.27606 0.0627,0.54605 0.0937,0.80808 0.031,0.26203 0.0619,0.51609 0.093,0.7603 0.0311,0.2442 0.0623,0.47855 0.0941,0.70113 0.0317,0.22259 0.064,0.43341 0.097,0.63058 0.033,0.19717 0.0667,0.38069 0.10159,0.54864 0.0348,0.16796 0.0707,0.32037 0.10801,0.45532 0.0373,0.13495 0.0759,0.25246 0.11623,0.35061 0.0403,0.0982 0.0823,0.17695 0.1262,0.23451 0.0439,0.0575 0.0898,0.0939 0.13797,0.10703 0.0482,0.0132 0.0986,0.003 0.15151,-0.0318 0.053,-0.035 0.10847,-0.0951 0.16683,-0.18209 0.0584,-0.087 0.11957,-0.20095 0.18392,-0.34374 0.0644,-0.14278 0.13186,-0.3144 0.20281,-0.51675 0.0709,-0.20236 0.14533,-0.43545 0.22345,-0.70117 0.0781,-0.26572 0.15999,-0.56408 0.24589,-0.89696 0.0859,-0.33289 0.17584,-0.7003 0.27011,-1.10415 0.0943,-0.40384 0.19286,-0.84411 0.29609,-1.32271 1.10109,-5.10503 3.30326,-15.31511 3.30326,-15.31511 m -24.02371,3.60356 c 0,0 -7.20711,-12.91275 -0.3003,-7.20712 2.30227,1.90188 6.17354,2.81083 6.90682,5.70563 m 0,0 c 1.24606,4.91916 -2.62432,10.08202 -5.70563,14.11393 -1.90857,2.49737 -4.59969,6.89921 -7.50741,5.70563 -2.61915,-1.07513 -1.20119,-8.4083 -1.20119,-8.4083 m -27.19314,-8.70105 c 0,0 -19.136841,11.5055 -16.049521,18.31054 3.26947,7.20653 16.395831,3.88923 23.723401,0.90088 2.42586,-0.98931 6.44758,-6.89676 6.44758,-6.89676 m -19.36032,3.29321 c 0,0 2.62032,-8.62959 6.30622,-9.30918 m 0,0 c 2.40322,-0.4431 4.14823,5.79182 6.00593,4.20414 3.64141,-3.11213 -6.30622,-12.91274 -6.30622,-12.91274 m 14.11392,12.31215 c 0,0 6.38702,11.70908 3.00297,15.91571 -4.26837,5.30589 -15.59926,5.41 -20.42015,0.60059 -2.62296,-2.61672 0.30029,-11.11097 0.30029,-11.11097 M 79.943406,261.9607 c 0,1.74142 -1.47892,3.15312 -3.30326,3.15312 -1.82433,0 -3.30325,-1.4117 -3.30325,-3.15312 0,-1.74141 1.47891,-3.15311 3.30325,-3.15311 1.82434,0 4.21585,0.95541 4.21585,2.69682" sodipodi:nodetypes="csccsccsssccsccsssssssssssssssssssssssssssssssssccsccssccssccccsccssccsssc"/>
    <text xml:space="preserve" style="font-size:4.23333px;font-family:'Arial Rounded MT Bold';-inkscape-font-specification:'Arial Rounded MT Bold, ';fill:#000000;stroke:none;stroke-width:0.2;stroke-linecap:square;stroke-linejoin:bevel;paint-order:stroke fill markers" x="111.56763" y="124.80161" id="text15519"><tspan sodipodi:role="line" id="tspan15517" style="font-size:4.23333px;stroke-width:0.2" x="111.56763" y="124.80161">Multiple close nodes</tspan><tspan sodipodi:role="line" style="font-size:4.23333px;stroke-width:0.2" x="111.56763" y="130.09328" id="tspan30157">at start/end and</tspan><tspan sodipodi:role="line" style="font-size:4.23333px;stroke-width:0.2" x="111.56763" y="135.38495" id="tspan17695">before/after steap curve</tspan></text>
    <text xml:space="preserve" style="font-size:4.23333px;font-family:'Arial Rounded MT Bold';-inkscape-font-specification:'Arial Rounded MT Bold, ';display:inline;fill:#000000;stroke:none;stroke-width:0.2;stroke-linecap:square;stroke-linejoin:bevel;paint-order:stroke fill markers" x="95.348534" y="195.71838" id="text15519-5"><tspan sodipodi:role="line" style="font-size:4.23333px;stroke-width:0.2" x="95.348534" y="195.71838" id="tspan17695-0">Combined path with multiple close nodes at start/end</tspan></text>
    <text xml:space="preserve" style="font-size:4.23333px;font-family:'Arial Rounded MT Bold';-inkscape-font-specification:'Arial Rounded MT Bold, ';display:inline;fill:#000000;stroke:none;stroke-width:0.2;stroke-linecap:square;stroke-linejoin:bevel;paint-order:stroke fill markers" x="129.78661" y="160.13995" id="text15519-5-0"><tspan sodipodi:role="line" style="font-size:4.23333px;stroke-width:0.2" x="129.78661" y="160.13995" id="tspan17695-0-9">Closed path, multiple start/end</tspan></text>
    <text xml:space="preserve" style="font-size:4.23333px;font-family:'Arial Rounded MT Bold';-inkscape-font-specification:'Arial Rounded MT Bold, ';display:inline;fill:#000000;stroke:none;stroke-width:0.2;stroke-linecap:square;stroke-linejoin:bevel;paint-order:stroke fill markers" x="47.022488" y="120.80386" id="text15519-5-0-2"><tspan sodipodi:role="line" style="font-size:4.23333px;stroke-width:0.2" x="47.022488" y="120.80386" id="tspan17695-0-9-5">Closed path</tspan><tspan sodipodi:role="line" style="font-size:4.23333px;stroke-width:0.2" x="47.022488" y="126.09553" id="tspan16939">(verify not more </tspan><tspan sodipodi:role="line" style="font-size:4.23333px;stroke-width:0.2" x="47.022488" y="131.38719" id="tspan58529">deformed than expected)</tspan></text>
    <text xml:space="preserve" style="font-size:4.23333px;font-family:'Arial Rounded MT Bold';-inkscape-font-specification:'Arial Rounded MT Bold, ';display:inline;fill:#000000;stroke:none;stroke-width:0.2;stroke-linecap:square;stroke-linejoin:bevel;paint-order:stroke fill markers" x="37.741184" y="150.37053" id="text15519-5-0-2-9"><tspan sodipodi:role="line" style="font-size:4.23333px;stroke-width:0.2" x="37.741184" y="150.37053" id="tspan17695-0-9-5-3">Open path</tspan><tspan sodipodi:role="line" style="font-size:4.23333px;stroke-width:0.2" x="37.741184" y="155.66219" id="tspan69378">with dist</tspan></text>
    <text xml:space="preserve" style="font-size:4.23333px;font-family:'Arial Rounded MT Bold';-inkscape-font-specification:'Arial Rounded MT Bold, ';display:inline;fill:#000000;stroke:none;stroke-width:0.2;stroke-linecap:square;stroke-linejoin:bevel;paint-order:stroke fill markers" x="62.470215" y="150.21649" id="text15519-5-0-2-9-8"><tspan sodipodi:role="line" style="font-size:4.23333px;stroke-width:0.2" x="62.470215" y="150.21649" id="tspan17695-0-9-5-3-8">Closed path</tspan><tspan sodipodi:role="line" style="font-size:4.23333px;stroke-width:0.2" x="62.470215" y="155.50815" id="tspan65435">with dist</tspan></text>
    <text xml:space="preserve" style="font-size:4.23333px;font-family:'Arial Rounded MT Bold';-inkscape-font-specification:'Arial Rounded MT Bold, ';display:inline;fill:#000000;stroke:none;stroke-width:0.2;stroke-linecap:square;stroke-linejoin:bevel;paint-order:stroke fill markers" x="166.84741" y="124.63169" id="text15519-0"><tspan sodipodi:role="line" id="tspan15517-2" style="font-size:4.23333px;stroke-width:0.2" x="166.84741" y="124.63169">Multiple duplicated</tspan><tspan sodipodi:role="line" style="font-size:4.23333px;stroke-width:0.2" x="166.84741" y="129.92334" id="tspan12504">nodes with curve </tspan><tspan sodipodi:role="line" style="font-size:4.23333px;stroke-width:0.2" x="166.84741" y="135.21501" id="tspan13246">before and after</tspan></text>
    <text xml:space="preserve" style="font-size:4.23333px;font-family:'Arial Rounded MT Bold';-inkscape-font-specification:'Arial Rounded MT Bold, ';fill:#000000;stroke:none;stroke-width:0.2;stroke-linecap:square;stroke-linejoin:bevel;paint-order:stroke fill markers" x="26.766405" y="65.477753" id="text15519-6-4"><tspan sodipodi:role="line" style="font-size:4.23333px;stroke-width:0.2" x="26.766405" y="65.477753" id="tspan22620-6">Subpaths to join</tspan><tspan sodipodi:role="line" style="font-size:4.23333px;stroke-width:0.2" x="26.766405" y="70.769417" id="tspan23814-5">simple</tspan></text>
    <text xml:space="preserve" style="font-size:4.23333px;font-family:'Arial Rounded MT Bold';-inkscape-font-specification:'Arial Rounded MT Bold, ';display:inline;fill:#000000;stroke:none;stroke-width:0.2;stroke-linecap:square;stroke-linejoin:bevel;paint-order:stroke fill markers" x="22.766438" y="220.87032" id="text15519-6-4-0"><tspan sodipodi:role="line" style="font-size:4.23333px;stroke-width:0.2" x="22.766438" y="220.87032" id="tspan23814-5-2">False</tspan><tspan sodipodi:role="line" style="font-size:4.23333px;stroke-width:0.2" x="22.766438" y="226.16197" id="tspan47205">False</tspan><tspan sodipodi:role="line" style="font-size:4.23333px;stroke-width:0.2" x="22.766438" y="231.45364" id="tspan4688">4</tspan><tspan sodipodi:role="line" style="font-size:4.23333px;stroke-width:0.2" x="22.766438" y="236.7453" id="tspan47201">4</tspan><tspan sodipodi:role="line" style="font-size:4.23333px;stroke-width:0.2" x="22.766438" y="242.03696" id="tspan42540">           (verify joined where dist &lt;4 and closed circles ignored)</tspan></text>
    <text xml:space="preserve" style="font-size:4.23333px;font-family:'Arial Rounded MT Bold';-inkscape-font-specification:'Arial Rounded MT Bold, ';display:inline;fill:#000000;stroke:none;stroke-width:0.2;stroke-linecap:square;stroke-linejoin:bevel;paint-order:stroke fill markers" x="128.13847" y="273.85236" id="text15519-6-4-0-38"><tspan sodipodi:role="line" style="font-size:4.23333px;stroke-width:0.2" x="128.13847" y="273.85236" id="tspan4690-0"/><tspan sodipodi:role="line" style="font-size:4.23333px;stroke-width:0.2" x="128.13847" y="279.14401" id="tspan42540-8">(verify:</tspan><tspan sodipodi:role="line" style="font-size:4.23333px;stroke-width:0.2" x="128.13847" y="284.43567" id="tspan65350">removed duplicates, joined close nodes</tspan><tspan sodipodi:role="line" style="font-size:4.23333px;stroke-width:0.2" x="128.13847" y="289.72736" id="tspan67208">closed sub_paths (circles)</tspan><tspan sodipodi:role="line" style="font-size:4.23333px;stroke-width:0.2" x="128.13847" y="295.01901" id="tspan68742">joined sub_paths where dist &lt;4</tspan></text>
    <text xml:space="preserve" style="font-size:4.23333px;font-family:'Arial Rounded MT Bold';-inkscape-font-specification:'Arial Rounded MT Bold, ';display:inline;fill:#f90000;fill-opacity:1;stroke:none;stroke-width:0.2;stroke-linecap:square;stroke-linejoin:bevel;paint-order:stroke fill markers" x="23.496943" y="268.25122" id="text15519-6-4-0-3"><tspan sodipodi:role="line" style="font-size:4.23333px;fill:#f90000;fill-opacity:1;stroke-width:0.2" x="23.496943" y="268.25122" id="tspan23814-5-2-4">2</tspan><tspan sodipodi:role="line" style="font-size:4.23333px;fill:#f90000;fill-opacity:1;stroke-width:0.2" x="23.496943" y="273.54288" id="tspan50517">False</tspan><tspan sodipodi:role="line" style="font-size:4.23333px;fill:#f90000;fill-opacity:1;stroke-width:0.2" x="23.496943" y="278.83453" id="tspan4688-4">4</tspan><tspan sodipodi:role="line" style="font-size:4.23333px;fill:#f90000;fill-opacity:1;stroke-width:0.2" x="23.496943" y="284.12622" id="tspan4690-7">4interp</tspan></text>
    <text xml:space="preserve" style="font-size:4.23333px;font-family:'Arial Rounded MT Bold';-inkscape-font-specification:'Arial Rounded MT Bold, ';display:inline;fill:#000000;stroke:none;stroke-width:0.2;stroke-linecap:square;stroke-linejoin:bevel;paint-order:stroke fill markers" x="33.253235" y="35.282341" id="text15519-6-4-0-3-6"><tspan sodipodi:role="line" style="font-size:4.23333px;stroke-width:0.2" x="33.253235" y="35.282341" id="tspan4690-7-4">0.1</tspan><tspan sodipodi:role="line" style="font-size:4.23333px;stroke-width:0.2" x="33.253235" y="40.574005" id="tspan25816">0.1</tspan><tspan sodipodi:role="line" style="font-size:4.23333px;stroke-width:0.2" x="33.253235" y="45.865665" id="tspan36916">False</tspan><tspan sodipodi:role="line" style="font-size:4.23333px;stroke-width:0.2" x="33.253235" y="51.157326" id="tspan36918">False</tspan></text>
    <text xml:space="preserve" style="font-size:4.23333px;font-family:'Arial Rounded MT Bold';-inkscape-font-specification:'Arial Rounded MT Bold, ';display:inline;fill:#000000;stroke:none;stroke-width:0.2;stroke-linecap:square;stroke-linejoin:bevel;paint-order:stroke fill markers" x="24.336605" y="8.1470833" id="text15519-6-4-0-3-6-1"><tspan sodipodi:role="line" style="font-size:4.23333px;stroke-width:0.2" x="24.336605" y="8.1470833" id="tspan4690-7-4-8">False</tspan><tspan sodipodi:role="line" style="font-size:4.23333px;stroke-width:0.2" x="24.336605" y="13.438745" id="tspan26498">False</tspan><tspan sodipodi:role="line" style="font-size:4.23333px;stroke-width:0.2" x="24.336605" y="18.730408" id="tspan36916-4">False</tspan><tspan sodipodi:role="line" style="font-size:4.23333px;stroke-width:0.2" x="24.336605" y="24.022072" id="tspan7207">False</tspan></text>
    <text xml:space="preserve" style="font-size:4.23333px;font-family:'Arial Rounded MT Bold';-inkscape-font-specification:'Arial Rounded MT Bold, ';display:inline;fill:#000000;stroke:none;stroke-width:0.2;stroke-linecap:square;stroke-linejoin:bevel;paint-order:stroke fill markers" x="102.88073" y="18.10541" id="text15519-6-4-0-3-6-2-1-50"><tspan sodipodi:role="line" style="font-size:4.23333px;stroke-width:0.2" x="102.88073" y="18.10541" id="tspan36918-1-3-9">(verify true duplicates removed)</tspan></text>
    <text xml:space="preserve" style="font-size:4.23333px;font-family:'Arial Rounded MT Bold';-inkscape-font-specification:'Arial Rounded MT Bold, ';display:inline;fill:#000000;stroke:none;stroke-width:0.2;stroke-linecap:square;stroke-linejoin:bevel;paint-order:stroke fill markers" x="57.258484" y="-3.079988" id="text15519-6-4-0-3-6-2-1-50-5"><tspan sodipodi:role="line" style="font-size:4.23333px;stroke-width:0.2" x="57.258484" y="-3.079988" id="tspan36918-1-3-9-0">zero length subpaths</tspan></text>
    <text xml:space="preserve" style="font-size:4.23333px;font-family:'Arial Rounded MT Bold';-inkscape-font-specification:'Arial Rounded MT Bold, ';display:inline;fill:#000000;stroke:none;stroke-width:0.2;stroke-linecap:square;stroke-linejoin:bevel;paint-order:stroke fill markers" x="78.215355" y="53.303146" id="text15519-6-4-0-3-6-2-1-5"><tspan sodipodi:role="line" style="font-size:4.23333px;stroke-width:0.2" x="78.215355" y="53.303146" id="tspan36918-1-3-5">(verify remove duplicates)</tspan></text>
    <text xml:space="preserve" style="font-size:4.23333px;font-family:'Arial Rounded MT Bold';-inkscape-font-specification:'Arial Rounded MT Bold, ';display:inline;fill:#000000;stroke:none;stroke-width:0.2;stroke-linecap:square;stroke-linejoin:bevel;paint-order:stroke fill markers" x="85.724991" y="32.858376" id="text15519-6-4-0-3-6-2-7"><tspan sodipodi:role="line" style="font-size:4.23333px;stroke-width:0.2" x="85.724991" y="32.858376" id="tspan6094">Duplicates not accurate</tspan></text>
    <text xml:space="preserve" style="font-size:4.23333px;font-family:'Arial Rounded MT Bold';-inkscape-font-specification:'Arial Rounded MT Bold, ';display:inline;fill:#000000;stroke:none;stroke-width:0.2;stroke-linecap:square;stroke-linejoin:bevel;paint-order:stroke fill markers" x="64.096321" y="86.395454" id="text15519-6-4-0-4"><tspan sodipodi:role="line" style="font-size:4.23333px;stroke-width:0.2" x="64.096321" y="86.395454" id="tspan23814-5-2-0">False</tspan><tspan sodipodi:role="line" style="font-size:4.23333px;stroke-width:0.2" x="64.096321" y="91.687119" id="tspan4688-5">False</tspan><tspan sodipodi:role="line" style="font-size:4.23333px;stroke-width:0.2" x="64.096321" y="96.978783" id="tspan28953">False</tspan><tspan sodipodi:role="line" style="font-size:4.23333px;stroke-width:0.2" x="64.096321" y="102.27044" id="tspan4690-9">4</tspan></text>
    <text xml:space="preserve" style="font-size:4.23333px;font-family:'Arial Rounded MT Bold';-inkscape-font-specification:'Arial Rounded MT Bold, ';display:inline;fill:#000000;stroke:none;stroke-width:0.2;stroke-linecap:square;stroke-linejoin:bevel;paint-order:stroke fill markers" x="198.43411" y="91.399002" id="text15519-6-4-0-4-6"><tspan sodipodi:role="line" style="font-size:4.23333px;stroke-width:0.2" x="198.43411" y="91.399002" id="tspan23814-5-2-0-1">False</tspan><tspan sodipodi:role="line" style="font-size:4.23333px;stroke-width:0.2" x="198.43411" y="96.690666" id="tspan4688-5-9">False</tspan><tspan sodipodi:role="line" style="font-size:4.23333px;stroke-width:0.2" x="198.43411" y="101.98233" id="tspan28953-9">False</tspan><tspan sodipodi:role="line" style="font-size:4.23333px;stroke-width:0.2" x="198.43411" y="107.27399" id="tspan4690-9-6">4</tspan></text>
    <text xml:space="preserve" style="font-size:4.23333px;font-family:'Arial Rounded MT Bold';-inkscape-font-specification:'Arial Rounded MT Bold, ';display:inline;fill:#000000;stroke:none;stroke-width:0.2;stroke-linecap:square;stroke-linejoin:bevel;paint-order:stroke fill markers" x="21.767603" y="118.48983" id="text15519-6-4-0-5"><tspan sodipodi:role="line" style="font-size:4.23333px;stroke-width:0.2" x="21.767603" y="118.48983" id="tspan23814-5-2-9"/><tspan sodipodi:role="line" style="font-size:4.23333px;stroke-width:0.2" x="21.767603" y="123.78149" id="tspan7077">4</tspan><tspan sodipodi:role="line" style="font-size:4.23333px;stroke-width:0.2" x="21.767603" y="129.07315" id="tspan7079">False</tspan><tspan sodipodi:role="line" style="font-size:4.23333px;stroke-width:0.2" x="21.767603" y="134.36482" id="tspan7081">False</tspan><tspan sodipodi:role="line" style="font-size:4.23333px;stroke-width:0.2" x="21.767603" y="139.65648" id="tspan32271">False</tspan><tspan sodipodi:role="line" style="font-size:4.23333px;stroke-width:0.2" x="21.767603" y="144.94814" id="tspan11486"/><tspan sodipodi:role="line" style="font-size:4.23333px;stroke-width:0.2" x="21.767603" y="150.23981" id="tspan4690-4"/></text>
    <text xml:space="preserve" style="font-size:4.23333px;font-family:'Arial Rounded MT Bold';-inkscape-font-specification:'Arial Rounded MT Bold, ';display:inline;fill:#000000;stroke:none;stroke-width:0.2;stroke-linecap:square;stroke-linejoin:bevel;paint-order:stroke fill markers" x="22.434452" y="146.70096" id="text15519-6-4-0-5-2"><tspan sodipodi:role="line" style="font-size:4.23333px;stroke-width:0.2" x="22.434452" y="146.70096" id="tspan23814-5-2-9-4"/><tspan sodipodi:role="line" style="font-size:4.23333px;stroke-width:0.2" x="22.434452" y="151.99261" id="tspan7077-8">False</tspan><tspan sodipodi:role="line" style="font-size:4.23333px;stroke-width:0.2" x="22.434452" y="157.28429" id="tspan32587">False</tspan><tspan sodipodi:role="line" style="font-size:4.23333px;stroke-width:0.2" x="22.434452" y="162.57594" id="tspan7079-5">1</tspan><tspan sodipodi:role="line" style="font-size:4.23333px;stroke-width:0.2" x="22.434452" y="167.86761" id="tspan7081-43">False</tspan><tspan sodipodi:role="line" style="font-size:4.23333px;stroke-width:0.2" x="22.434452" y="173.15927" id="tspan24351"/><tspan sodipodi:role="line" style="font-size:4.23333px;stroke-width:0.2" x="22.434452" y="178.45093" id="tspan11486-9"/><tspan sodipodi:role="line" style="font-size:4.23333px;stroke-width:0.2" x="22.434452" y="183.7426" id="tspan4690-4-3"/></text>
    <text xml:space="preserve" style="font-size:4.23333px;font-family:'Arial Rounded MT Bold';-inkscape-font-specification:'Arial Rounded MT Bold, ';display:inline;fill:#000000;stroke:none;stroke-width:0.2;stroke-linecap:square;stroke-linejoin:bevel;paint-order:stroke fill markers" x="43.419365" y="159.94655" id="text15519-6-4-0-5-2-1"><tspan sodipodi:role="line" style="font-size:4.23333px;stroke-width:0.2" x="43.419365" y="159.94655" id="tspan23814-5-2-9-4-6"/><tspan sodipodi:role="line" style="font-size:4.23333px;stroke-width:0.2" x="43.419365" y="165.2382" id="tspan7081-43-7"/><tspan sodipodi:role="line" style="font-size:4.23333px;stroke-width:0.2" x="43.419365" y="170.52988" id="tspan24351-9">(verify closed)</tspan><tspan sodipodi:role="line" style="font-size:4.23333px;stroke-width:0.2" x="43.419365" y="175.82153" id="tspan11486-9-2"/><tspan sodipodi:role="line" style="font-size:4.23333px;stroke-width:0.2" x="43.419365" y="181.11319" id="tspan4690-4-3-9"/></text>
    <text xml:space="preserve" style="font-size:4.23333px;font-family:'Arial Rounded MT Bold';-inkscape-font-specification:'Arial Rounded MT Bold, ';display:inline;fill:#000000;stroke:none;stroke-width:0.2;stroke-linecap:square;stroke-linejoin:bevel;paint-order:stroke fill markers" x="30.13809" y="178.18481" id="text15519-6-4-0-5-1-6"><tspan sodipodi:role="line" style="font-size:4.23333px;stroke-width:0.2" x="30.13809" y="178.18481" id="tspan23814-5-2-9-3-6"/><tspan sodipodi:role="line" style="font-size:4.23333px;stroke-width:0.2" x="30.13809" y="183.47647" id="tspan7077-1-5">1</tspan><tspan sodipodi:role="line" style="font-size:4.23333px;stroke-width:0.2" x="30.13809" y="188.76814" id="tspan7079-1-1">False</tspan><tspan sodipodi:role="line" style="font-size:4.23333px;stroke-width:0.2" x="30.13809" y="194.0598" id="tspan7081-4-5">False</tspan><tspan sodipodi:role="line" style="font-size:4.23333px;stroke-width:0.2" x="30.13809" y="199.35147" id="tspan41917">False</tspan><tspan sodipodi:role="line" style="font-size:4.23333px;stroke-width:0.2" x="30.13809" y="204.64313" id="tspan30928">     (verify remove duplicates and close nodes)</tspan><tspan sodipodi:role="line" style="font-size:4.23333px;stroke-width:0.2" x="30.13809" y="209.93478" id="tspan11486-7-7"/><tspan sodipodi:role="line" style="font-size:4.23333px;stroke-width:0.2" x="30.13809" y="215.22646" id="tspan4690-4-6-1"/></text>
    <path style="fill:#000000;stroke:#010000;stroke-width:0.2;stroke-linecap:square;stroke-linejoin:bevel;stroke-opacity:1;paint-order:stroke fill markers" d="M 100.9745,59.785931 100.50626,171.35378" id="path37369" sodipodi:nodetypes="cc"/>
    <path style="fill:#000000;stroke:#010000;stroke-width:0.2;stroke-linecap:square;stroke-linejoin:bevel;stroke-opacity:1;paint-order:stroke fill markers" d="m 12.884935,207.24147 179.802015,0.46824" id="path37371"/>
    <path style="display:inline;fill:#000000;stroke:#010000;stroke-width:0.2;stroke-linecap:square;stroke-linejoin:bevel;stroke-opacity:1;paint-order:stroke fill markers" d="m 9.5180833,171.36045 83.4936877,0.46824" id="path37371-4" sodipodi:nodetypes="cc"/>
    <path style="display:inline;fill:#000000;stroke:#010000;stroke-width:0.2;stroke-linecap:square;stroke-linejoin:bevel;stroke-opacity:1;paint-order:stroke fill markers" d="m 17.075059,115.01382 189.468881,0.46824" id="path37371-4-4" sodipodi:nodetypes="cc"/>
    <path style="display:inline;fill:#000000;stroke:#010000;stroke-width:0.2;stroke-linecap:square;stroke-linejoin:bevel;stroke-opacity:1;paint-order:stroke fill markers" d="M 101.60947,96.535379 207.9828,81.225983" id="path37371-4-4-8" sodipodi:nodetypes="cc"/>
    <path style="display:inline;fill:#000000;stroke:#010000;stroke-width:0.2;stroke-linecap:square;stroke-linejoin:bevel;stroke-opacity:1;paint-order:stroke fill markers" d="m 4.810768,144.42418 83.493681,0.46824" id="path37371-4-4-6" sodipodi:nodetypes="cc"/>
    <path style="display:inline;fill:#000000;stroke:#010000;stroke-width:0.2;stroke-linecap:square;stroke-linejoin:bevel;stroke-opacity:1;paint-order:stroke fill markers" d="m 19.394122,244.48562 179.802008,0.46824" id="path37371-1"/>
    <path style="display:inline;fill:#000000;stroke:#010000;stroke-width:0.2;stroke-linecap:square;stroke-linejoin:bevel;stroke-opacity:1;paint-order:stroke fill markers" d="m 20.677523,55.987031 179.802007,0.46824" id="path37371-2"/>
    <path style="display:inline;fill:#000000;stroke:#010000;stroke-width:0.2;stroke-linecap:square;stroke-linejoin:bevel;stroke-opacity:1;paint-order:stroke fill markers" d="m 18.071483,25.215681 179.802247,0.46824" id="path37371-2-7"/>
    <text xml:space="preserve" style="font-size:4.23333px;font-family:'Arial Rounded MT Bold';-inkscape-font-specification:'Arial Rounded MT Bold, ';display:inline;fill:#f90000;fill-opacity:1;stroke:none;stroke-width:0.2;stroke-linecap:square;stroke-linejoin:bevel;paint-order:stroke fill markers" x="48.349976" y="269.46356" id="text2099"><tspan sodipodi:role="line" style="font-size:4.23333px;fill:#0000fe;fill-opacity:1;stroke-width:0.2" x="48.349976" y="269.46356" id="tspan2093">2</tspan><tspan sodipodi:role="line" style="font-size:4.23333px;fill:#0000fe;fill-opacity:1;stroke-width:0.2" x="48.349976" y="274.75522" id="tspan51343">False</tspan><tspan sodipodi:role="line" style="font-size:4.23333px;fill:#0000fe;fill-opacity:1;stroke-width:0.2" x="48.349976" y="280.04688" id="tspan2095">4</tspan><tspan sodipodi:role="line" style="font-size:4.23333px;fill:#0000fe;fill-opacity:1;stroke-width:0.2" x="48.349976" y="285.33856" id="tspan2097">4straightline</tspan></text>
    <text xml:space="preserve" style="font-size:4.23333px;font-family:'Arial Rounded MT Bold';-inkscape-font-specification:'Arial Rounded MT Bold, ';fill:#0000fe;stroke:#f00000;stroke-width:0.2;stroke-linecap:square;stroke-linejoin:bevel;stroke-opacity:1;paint-order:stroke fill markers" x="21.524511" y="292.92053" id="text56438"><tspan sodipodi:role="line" id="tspan56436" style="stroke-width:0.2"/></text>
    <path style="fill:#fc0000;fill-opacity:1;stroke:#fc0001;stroke-width:0.25;stroke-linecap:square;stroke-linejoin:bevel;stroke-miterlimit:4;stroke-dasharray:none;stroke-opacity:1;paint-order:stroke fill markers" d="M 75.554101,-1.8112784 75.948314,9.8837318 73.583031,6.8614257 78.050788,6.7300211 75.816908,9.752327" id="path13154"/>
    <path style="display:inline;fill:#fc0000;fill-opacity:1;stroke:#fc0001;stroke-width:0.25;stroke-linecap:square;stroke-linejoin:bevel;stroke-miterlimit:4;stroke-dasharray:none;stroke-opacity:1;paint-order:stroke fill markers" d="M 90.035535,-2.3906266 90.429748,9.3043836 88.064465,6.2820775 92.532222,6.1506729 90.298342,9.1729788" id="path13154-5"/>
    <ellipse style="fill:none;fill-opacity:1;stroke:#fc0001;stroke-width:0.25;stroke-linecap:square;stroke-linejoin:bevel;stroke-miterlimit:4;stroke-dasharray:none;stroke-opacity:1;paint-order:stroke fill markers" id="path13489" cx="75.958961" cy="11.453487" rx="2.7594967" ry="2.1024737"/>
    <ellipse style="display:inline;fill:none;fill-opacity:1;stroke:#fc0001;stroke-width:0.25;stroke-linecap:square;stroke-linejoin:bevel;stroke-miterlimit:4;stroke-dasharray:none;stroke-opacity:1;paint-order:stroke fill markers" id="path13489-1" cx="90.024918" cy="11.115882" rx="2.7594967" ry="2.1024737"/>
    <text xml:space="preserve" style="font-size:4.23333px;font-family:'Arial Rounded MT Bold';-inkscape-font-specification:'Arial Rounded MT Bold, ';display:inline;fill:#000000;stroke:none;stroke-width:0.2;stroke-linecap:square;stroke-linejoin:bevel;paint-order:stroke fill markers" x="155.49297" y="45.196735" id="text15519-6-4-0-3-6-2-1-50-5-1"><tspan sodipodi:role="line" style="font-size:4.23333px;stroke-width:0.2" x="155.49297" y="45.196735" id="tspan36918-1-3-9-0-1">small length subpath</tspan></text>
    <path style="display:inline;fill:#fc0000;fill-opacity:1;stroke:#fc0001;stroke-width:0.25;stroke-linecap:square;stroke-linejoin:bevel;stroke-miterlimit:4;stroke-dasharray:none;stroke-opacity:1;paint-order:stroke fill markers" d="m 154.30079,41.187177 -11.69501,0.39421 3.02231,-2.36528 0.1314,4.46776 -3.0223,-2.23388" id="path13154-7"/>
    <ellipse style="display:inline;fill:none;fill-opacity:1;stroke:#fc0001;stroke-width:0.25;stroke-linecap:square;stroke-linejoin:bevel;stroke-miterlimit:4;stroke-dasharray:none;stroke-opacity:1;paint-order:stroke fill markers" id="path13489-5" cx="139.3018" cy="41.833817" rx="2.7594967" ry="2.1024737"/>
    <text xml:space="preserve" style="font-size:4.23333px;font-family:'Arial Rounded MT Bold';-inkscape-font-specification:'Arial Rounded MT Bold, ';fill:none;stroke:#f70000;stroke-width:0.25;stroke-linecap:square;stroke-linejoin:bevel;stroke-opacity:1;paint-order:stroke fill markers" x="50.569016" y="301.35007" id="text52871"><tspan sodipodi:role="line" id="tspan52869" style="stroke-width:0.25" x="50.569016" y="301.35007"/></text>
    <path style="fill:none;stroke:#010302;stroke-width:1;stroke-linejoin:round;paint-order:stroke fill markers;stroke-opacity:1;stroke-miterlimit:4;stroke-dasharray:none" d="m 181.95454,12.652468 c -0.52391,-1.833562 -0.10957,-3.9093599 1.07813,-5.401271 1.18771,-1.4919111 3.1178,-2.3610306 5.02214,-2.2614683 0.47762,0.024971 0.96106,0.1101063 1.38356,0.3342564 0.35998,0.1909809 0.66556,0.4794521 0.88958,0.819858 0.22401,0.3404059 0.36731,0.731684 0.43108,1.1341667 0.12753,0.8049654 -0.0637,1.6385041 -0.42877,2.3671738 -0.73014,1.4573394 -2.08398,2.4779494 -3.24718,3.6198304 -0.79771,0.783085 -1.5343,1.665859 -1.92204,2.714293 -0.19387,0.524217 -0.29659,1.085505 -0.26694,1.643636 0.0297,0.558132 0.19468,1.112785 0.50337,1.578726 0.49397,0.74561 1.313,1.214211 2.14869,1.532893 2.34633,0.894745 5.08559,0.764771 7.28604,-0.445123 0.73027,-0.401531 1.42372,-0.944912 1.7735,-1.701336 0.17489,-0.378212 0.25662,-0.803842 0.2015,-1.21687 -0.0551,-0.413028 -0.2524,-0.811135 -0.56928,-1.08172 -0.36774,-0.314011 -0.87327,-0.438405 -1.3555,-0.402468 -0.48223,0.03594 -0.94353,0.220502 -1.3612,0.464203 -0.5021,0.292963 -0.95247,0.674292 -1.32421,1.121207" id="ink_effect" inkscape:path-effect="#path-effect3510;#path-effect3512" inkscape:original-d="m 181.95454,12.652468 c 15.58374,-21.8665523 1.74554,6.295257 3.61498,7.229981 12.69725,6.348622 13.44426,-9.226765 6.62749,-2.409994"/>
    <text xml:space="preserve" style="font-size:4.23333px;font-family:'Arial Rounded MT Bold';-inkscape-font-specification:'Arial Rounded MT Bold, ';fill:#000000;fill-opacity:1;stroke:none;stroke-width:0.3;stroke-linejoin:round;stroke-miterlimit:5;stroke-dasharray:none;stroke-opacity:1;paint-order:stroke fill markers" x="123.70159" y="66.411224" id="text2702"><tspan sodipodi:role="line" style="fill:#000000;fill-opacity:1;stroke:none;stroke-width:0.3" x="123.70159" y="66.411224" id="tspan7515">Two circles - do nothing on default settings</tspan><tspan sodipodi:role="line" style="fill:#000000;fill-opacity:1;stroke:none;stroke-width:0.3" x="123.70159" y="71.702888" id="tspan7519"/><tspan sodipodi:role="line" style="fill:#000000;fill-opacity:1;stroke:none;stroke-width:0.3" x="123.70159" y="76.994553" id="tspan7865">4, False, False, False = reduce nodes</tspan><tspan sodipodi:role="line" style="fill:#000000;fill-opacity:1;stroke:none;stroke-width:0.3" x="123.70159" y="82.286209" id="tspan12968"/><tspan sodipodi:role="line" style="fill:#000000;fill-opacity:1;stroke:none;stroke-width:0.3" x="123.70159" y="87.577873" id="tspan12972">original</tspan></text>
    <text xml:space="preserve" style="font-size:4.23333px;font-family:'Arial Rounded MT Bold';-inkscape-font-specification:'Arial Rounded MT Bold, ';fill:none;stroke:#010000;stroke-width:0.3;stroke-linejoin:round;stroke-miterlimit:5;stroke-opacity:1;paint-order:stroke fill markers" x="103.43118" y="103.43116" id="text8238"><tspan sodipodi:role="line" id="tspan8236" style="fill:#000000;fill-opacity:1;stroke:none;stroke-width:0.3" x="103.43118" y="103.43116">Join self-intersecting beziers</tspan></text>
  </g>
  <g inkscape:groupmode="layer" id="layer2" inkscape:label="visualized_subpaths" style="display:inline">
    <path id="path2302" style="fill:none;fill-rule:evenodd;stroke:#020000;stroke-width:0.264583px;stroke-linecap:butt;stroke-linejoin:miter;stroke-opacity:1" d="m 230.62061,235.55707 c 4.26465,-2.16604 8.03875,-4.65912 6.39876,-10.76162 m 34.90234,-4.94454 c 4.20636,2.07248 4.41244,5.6206 6.1787,5.50179 5.05353,-0.33988 3.88911,1.6699 1.38347,4.96899 m 28.21274,0.29085 c -3.39981,-1.27715 -6.78975,-2.62668 -9.01644,-12.50676 m -3.19939,11.92505 c 2.26308,-2.91134 2.95805,-4.08081 1.69823,-10.12365 m -26.00824,8.87795 c -1.0148,0.12709 -2.17369,1.48749 -1.84092,2.45458 0.82741,2.40463 6.20905,4.26011 7.36369,1.99435 1.07334,-2.10622 -3.17716,-4.74269 -5.52277,-4.44893 z m -6.22954,2.40912 c -1.79298,-9.03144 2.5474,-7.40448 6.45103,-5.52101 0.89258,-2.49627 0.94835,-5.31797 1.43013,-7.47361 m -50.70224,8.84757 c 0.40429,6.72334 3.53701,9.77171 7.89998,10.16114 m 22.99613,-15.32143 c 3.1596,6.17817 0.13405,8.95449 -4.65363,10.76162 m 55.02431,-13.3749 c -1.09138,1.1045 -0.0783,3.91755 1.38069,4.44892 1.5994,0.58251 4.53501,-1.07615 4.29549,-2.76139 -0.27775,-1.95428 -4.28878,-3.09161 -5.67618,-1.68753 z m 9.45117,-2.66901 c 0.91062,4.92629 1.33412,10.35241 -2.95548,12.47855 m 4.79445,-11.55909 c 4.8519,2.1638 8.19405,5.88168 7.06488,10.03919 m -64.65376,-5.96722 c 0.20759,3.25158 2.29155,5.30838 2.09798,7.42932 -0.45498,4.98532 0.65844,7.026 4.40401,3.97028 m -48.67566,4.59739 c 1.21428,-4.37115 0.0135,-11.40162 6.90539,-13.99853 m 66.57716,-3.58411 c 2.54555,8.54493 3.09878,11.11009 6.03289,12.27217 m 28.10014,-2.83344 c 8.29602,-2.11927 11.7959,-8.23534 15.41521,-14.25188 m -100.17538,7.7968 c 6.33029,0.63873 5.88749,5.96655 7.39331,9.94533 m 34.92108,-0.96641 c 4.30139,0.18301 9.74285,1.66083 7.36872,-4.91236 -0.97351,-2.69536 1.81915,-5.61576 1.84472,-8.40125 m -62.76938,9.05189 c -1.59229,-1.16995 -0.74271,-5.05233 1.07387,-5.82962 1.62996,-0.69745 4.53254,1.14387 4.4489,2.91481 -0.0982,2.07928 -3.84531,4.14733 -5.52277,2.91481 z"/>
    <g id="g2523" transform="translate(174.37541,98.964839)">
      <g id="g2447">
        <circle cx="56.24519" cy="136.59213" r="0.92604166" style="fill:#00ff00;stroke:none" id="circle2375"/>
        <circle cx="62.643955" cy="125.83057" r="0.8334375" style="fill:#ff0000;stroke:none" id="circle2377"/>
        <circle cx="97.546318" cy="120.88606" r="0.92604166" style="fill:#00ff00;stroke:none" id="circle2379"/>
        <circle cx="105.1085" cy="131.35678" r="0.8334375" style="fill:#ff0000;stroke:none" id="circle2381"/>
        <circle cx="133.32124" cy="131.64763" r="0.92604166" style="fill:#00ff00;stroke:none" id="circle2383"/>
        <circle cx="124.3048" cy="119.14094" r="0.8334375" style="fill:#ff0000;stroke:none" id="circle2385"/>
        <circle cx="121.10541" cy="131.06592" r="0.92604166" style="fill:#00ff00;stroke:none" id="circle2387"/>
        <circle cx="122.80364" cy="120.94233" r="0.8334375" style="fill:#ff0000;stroke:none" id="circle2389"/>
        <circle cx="96.795395" cy="129.82024" r="0.92604166" style="fill:#00ff00;stroke:none" id="circle2391"/>
        <circle cx="96.795395" cy="129.82024" r="0.8334375" style="fill:#ff0000;stroke:none" id="circle2393"/>
        <circle cx="90.565842" cy="132.22932" r="0.92604166" style="fill:#00ff00;stroke:none" id="circle2395"/>
        <circle cx="98.447014" cy="119.23479" r="0.8334375" style="fill:#ff0000;stroke:none" id="circle2397"/>
        <circle cx="47.74474" cy="128.08231" r="0.92604166" style="fill:#00ff00;stroke:none" id="circle2399"/>
        <circle cx="55.644726" cy="138.24339" r="0.8334375" style="fill:#ff0000;stroke:none" id="circle2401"/>
        <circle cx="78.640869" cy="122.92204" r="0.92604166" style="fill:#00ff00;stroke:none" id="circle2403"/>
        <circle cx="73.987221" cy="133.68359" r="0.8334375" style="fill:#ff0000;stroke:none" id="circle2405"/>
        <circle cx="129.01157" cy="120.30878" r="0.92604166" style="fill:#00ff00;stroke:none" id="circle2407"/>
        <circle cx="129.01157" cy="120.30878" r="0.8334375" style="fill:#ff0000;stroke:none" id="circle2409"/>
        <circle cx="138.46274" cy="117.63978" r="0.92604166" style="fill:#00ff00;stroke:none" id="circle2411"/>
        <circle cx="135.50726" cy="130.11827" r="0.8334375" style="fill:#ff0000;stroke:none" id="circle2413"/>
        <circle cx="140.30171" cy="118.55924" r="0.92604166" style="fill:#00ff00;stroke:none" id="circle2415"/>
        <circle cx="147.36659" cy="128.59837" r="0.8334375" style="fill:#ff0000;stroke:none" id="circle2417"/>
        <circle cx="82.712814" cy="122.63119" r="0.92604166" style="fill:#00ff00;stroke:none" id="circle2419"/>
        <circle cx="89.214806" cy="134.03072" r="0.8334375" style="fill:#ff0000;stroke:none" id="circle2421"/>
        <circle cx="40.539124" cy="138.6281" r="0.92604166" style="fill:#00ff00;stroke:none" id="circle2423"/>
        <circle cx="47.444508" cy="124.62964" r="0.8334375" style="fill:#ff0000;stroke:none" id="circle2425"/>
        <circle cx="114.02171" cy="121.04555" r="0.92604166" style="fill:#00ff00;stroke:none" id="circle2427"/>
        <circle cx="120.0546" cy="133.31766" r="0.8334375" style="fill:#ff0000;stroke:none" id="circle2429"/>
        <circle cx="148.15474" cy="130.48422" r="0.92604166" style="fill:#00ff00;stroke:none" id="circle2431"/>
        <circle cx="163.56995" cy="116.23241" r="0.8334375" style="fill:#ff0000;stroke:none" id="circle2433"/>
        <circle cx="63.394531" cy="124.02918" r="0.92604166" style="fill:#00ff00;stroke:none" id="circle2435"/>
        <circle cx="70.787842" cy="133.97446" r="0.8334375" style="fill:#ff0000;stroke:none" id="circle2437"/>
        <circle cx="105.70896" cy="133.00806" r="0.92604166" style="fill:#00ff00;stroke:none" id="circle2439"/>
        <circle cx="114.9224" cy="119.69451" r="0.8334375" style="fill:#ff0000;stroke:none" id="circle2441"/>
        <circle cx="52.152985" cy="128.74635" r="0.92604166" style="fill:#00ff00;stroke:none" id="circle2443"/>
        <circle cx="52.152985" cy="128.74635" r="0.8334375" style="fill:#ff0000;stroke:none" id="circle2445"/>
      </g>
      <g id="g2521">
        <text x="57.17123" y="135.66609" style="font-style:normal;font-weight:normal;font-size:1.85208px;fill:#999999;fill-opacity:1;stroke:none" id="text2449">0</text>
        <text x="63.569996" y="124.90453" style="font-style:normal;font-weight:normal;font-size:1.85208px;fill:#999999;fill-opacity:1;stroke:none" id="text2451">0</text>
        <text x="98.472359" y="119.96002" style="font-style:normal;font-weight:normal;font-size:1.85208px;fill:#999999;fill-opacity:1;stroke:none" id="text2453">1</text>
        <text x="106.03454" y="130.43074" style="font-style:normal;font-weight:normal;font-size:1.85208px;fill:#999999;fill-opacity:1;stroke:none" id="text2455">1</text>
        <text x="134.24728" y="130.72159" style="font-style:normal;font-weight:normal;font-size:1.85208px;fill:#999999;fill-opacity:1;stroke:none" id="text2457">2</text>
        <text x="125.23084" y="118.2149" style="font-style:normal;font-weight:normal;font-size:1.85208px;fill:#999999;fill-opacity:1;stroke:none" id="text2459">2</text>
        <text x="122.03145" y="130.13988" style="font-style:normal;font-weight:normal;font-size:1.85208px;fill:#999999;fill-opacity:1;stroke:none" id="text2461">3</text>
        <text x="123.72968" y="120.01629" style="font-style:normal;font-weight:normal;font-size:1.85208px;fill:#999999;fill-opacity:1;stroke:none" id="text2463">3</text>
        <text x="97.721436" y="128.8942" style="font-style:normal;font-weight:normal;font-size:1.85208px;fill:#999999;fill-opacity:1;stroke:none" id="text2465">4</text>
        <text x="97.721436" y="128.8942" style="font-style:normal;font-weight:normal;font-size:1.85208px;fill:#999999;fill-opacity:1;stroke:none" id="text2467">4</text>
        <text x="91.49189" y="131.30328" style="font-style:normal;font-weight:normal;font-size:1.85208px;fill:#999999;fill-opacity:1;stroke:none" id="text2469">5</text>
        <text x="99.373055" y="118.30875" style="font-style:normal;font-weight:normal;font-size:1.85208px;fill:#999999;fill-opacity:1;stroke:none" id="text2471">5</text>
        <text x="48.67078" y="127.15626" style="font-style:normal;font-weight:normal;font-size:1.85208px;fill:#999999;fill-opacity:1;stroke:none" id="text2473">6</text>
        <text x="56.570766" y="137.31735" style="font-style:normal;font-weight:normal;font-size:1.85208px;fill:#999999;fill-opacity:1;stroke:none" id="text2475">6</text>
        <text x="79.56691" y="121.99599" style="font-style:normal;font-weight:normal;font-size:1.85208px;fill:#999999;fill-opacity:1;stroke:none" id="text2477">7</text>
        <text x="74.913261" y="132.75755" style="font-style:normal;font-weight:normal;font-size:1.85208px;fill:#999999;fill-opacity:1;stroke:none" id="text2479">7</text>
        <text x="129.93761" y="119.38274" style="font-style:normal;font-weight:normal;font-size:1.85208px;fill:#999999;fill-opacity:1;stroke:none" id="text2481">8</text>
        <text x="129.93761" y="119.38274" style="font-style:normal;font-weight:normal;font-size:1.85208px;fill:#999999;fill-opacity:1;stroke:none" id="text2483">8</text>
        <text x="139.38878" y="116.71374" style="font-style:normal;font-weight:normal;font-size:1.85208px;fill:#999999;fill-opacity:1;stroke:none" id="text2485">9</text>
        <text x="136.4333" y="129.19223" style="font-style:normal;font-weight:normal;font-size:1.85208px;fill:#999999;fill-opacity:1;stroke:none" id="text2487">9</text>
        <text x="141.22775" y="117.6332" style="font-style:normal;font-weight:normal;font-size:1.85208px;fill:#999999;fill-opacity:1;stroke:none" id="text2489">10</text>
        <text x="148.29263" y="127.67233" style="font-style:normal;font-weight:normal;font-size:1.85208px;fill:#999999;fill-opacity:1;stroke:none" id="text2491">10</text>
        <text x="83.638855" y="121.70515" style="font-style:normal;font-weight:normal;font-size:1.85208px;fill:#999999;fill-opacity:1;stroke:none" id="text2493">11</text>
        <text x="90.140846" y="133.10468" style="font-style:normal;font-weight:normal;font-size:1.85208px;fill:#999999;fill-opacity:1;stroke:none" id="text2495">11</text>
        <text x="41.465168" y="137.70206" style="font-style:normal;font-weight:normal;font-size:1.85208px;fill:#999999;fill-opacity:1;stroke:none" id="text2497">12</text>
        <text x="48.370548" y="123.7036" style="font-style:normal;font-weight:normal;font-size:1.85208px;fill:#999999;fill-opacity:1;stroke:none" id="text2499">12</text>
        <text x="114.94775" y="120.11951" style="font-style:normal;font-weight:normal;font-size:1.85208px;fill:#999999;fill-opacity:1;stroke:none" id="text2501">13</text>
        <text x="120.98064" y="132.3916" style="font-style:normal;font-weight:normal;font-size:1.85208px;fill:#999999;fill-opacity:1;stroke:none" id="text2503">13</text>
        <text x="149.08078" y="129.55818" style="font-style:normal;font-weight:normal;font-size:1.85208px;fill:#999999;fill-opacity:1;stroke:none" id="text2505">14</text>
        <text x="164.49599" y="115.30637" style="font-style:normal;font-weight:normal;font-size:1.85208px;fill:#999999;fill-opacity:1;stroke:none" id="text2507">14</text>
        <text x="64.320572" y="123.10314" style="font-style:normal;font-weight:normal;font-size:1.85208px;fill:#999999;fill-opacity:1;stroke:none" id="text2509">15</text>
        <text x="71.713882" y="133.0484" style="font-style:normal;font-weight:normal;font-size:1.85208px;fill:#999999;fill-opacity:1;stroke:none" id="text2511">15</text>
        <text x="106.635" y="132.082" style="font-style:normal;font-weight:normal;font-size:1.85208px;fill:#999999;fill-opacity:1;stroke:none" id="text2513">16</text>
        <text x="115.84844" y="118.76847" style="font-style:normal;font-weight:normal;font-size:1.85208px;fill:#999999;fill-opacity:1;stroke:none" id="text2515">16</text>
        <text x="53.079025" y="127.8203" style="font-style:normal;font-weight:normal;font-size:1.85208px;fill:#999999;fill-opacity:1;stroke:none" id="text2517">17</text>
        <text x="53.079025" y="127.8203" style="font-style:normal;font-weight:normal;font-size:1.85208px;fill:#999999;fill-opacity:1;stroke:none" id="text2519">17</text>
      </g>
    </g>
    <path id="path2709" style="fill:none;fill-rule:evenodd;stroke:#000000;stroke-width:0.264583px;stroke-linecap:butt;stroke-linejoin:miter;stroke-opacity:1" d="m 231.32441,270.59217 c 0,0 -0.81104,-12.36837 3.60355,-15.01482 2.04073,-1.22336 6.90682,1.80178 6.90682,1.80178 m 43.84324,3.30326 c 0,0 -6.67823,0.76149 -6.90681,3.30326 -0.19907,2.21362 5.40533,3.90385 5.40533,3.90385 m -41.39863,20.35602 c 0,1.90726 -1.4117,3.45341 -3.15311,3.45341 -1.74142,0 -3.15311,-1.54615 -3.15311,-3.45341 0,-1.90727 1.41169,-3.45341 3.15311,-3.45341 1.74141,0 3.15311,1.54615 3.15311,3.45341 M 231.925,267.72805 c 0,0 -9.79467,3.74329 -9.60948,8.26945 0.1771,4.32847 9.90978,8.4083 9.90978,8.4083 m 64.26339,-18.61837 c 0,0 4.74623,-4.98011 7.50741,-4.20415 3.53808,0.99429 2.10207,24.9246 5.40534,9.60948 1.10109,-5.10503 3.30326,-15.31511 3.30326,-15.31511 m -24.02371,3.60356 c 0,0 -7.20711,-12.91275 -0.3003,-7.20712 2.30227,1.90188 6.17354,2.81083 6.90682,5.70563 m 0,0 c 1.24606,4.91916 -2.62432,10.08202 -5.70563,14.11393 -1.90857,2.49737 -4.59969,6.89921 -7.50741,5.70563 -2.61915,-1.07513 -1.20119,-8.4083 -1.20119,-8.4083 m -27.19314,-8.70105 c 0,0 -19.13683,11.5055 -16.04951,18.31054 3.26947,7.20653 16.39582,3.88923 23.72339,0.90088 2.42586,-0.98931 6.44758,-6.89676 6.44758,-6.89676 m -19.36032,3.29321 c 0,0 2.62032,-8.62959 6.30622,-9.30918 m 0,0 c 2.40322,-0.4431 4.14823,5.79182 6.00593,4.20414 3.64141,-3.11213 -6.30622,-12.91274 -6.30622,-12.91274 m 14.11392,12.31215 c 0,0 6.38702,11.70908 3.00297,15.91571 -4.26837,5.30589 -15.59926,5.41 -20.42015,0.60059 -2.62296,-2.61672 0.30029,-11.11097 0.30029,-11.11097 m -25.52517,-10.88939 c 0,1.74142 -1.47892,3.15312 -3.30326,3.15312 -1.82433,0 -3.30325,-1.4117 -3.30325,-3.15312 0,-1.74141 1.47891,-3.15311 3.30325,-3.15311 1.82434,0 4.21585,0.95541 4.21585,2.69682" sodipodi:nodetypes="csccsccsssccsccssccsccssccssccccsccssccsssc"/>
    <g id="g3019" transform="translate(141.17249,71.749771)">
      <g id="g2967">
        <circle cx="90.151924" cy="198.84227" r="1.3229166" style="fill:#00ff00;stroke:none" id="circle2919"/>
        <circle cx="100.66229" cy="185.62923" r="1.190625" style="fill:#ff0000;stroke:none" id="circle2921"/>
        <circle cx="144.50555" cy="188.9325" r="1.3229166" style="fill:#00ff00;stroke:none" id="circle2923"/>
        <circle cx="143.00407" cy="196.1396" r="1.190625" style="fill:#ff0000;stroke:none" id="circle2925"/>
        <circle cx="101.60543" cy="216.49562" r="1.3229166" style="fill:#00ff00;stroke:none" id="circle2927"/>
        <circle cx="101.60543" cy="216.49562" r="1.190625" style="fill:#ff0000;stroke:none" id="circle2929"/>
        <circle cx="90.752518" cy="195.97815" r="1.3229166" style="fill:#00ff00;stroke:none" id="circle2931"/>
        <circle cx="91.052818" cy="212.6559" r="1.190625" style="fill:#ff0000;stroke:none" id="circle2933"/>
        <circle cx="155.31622" cy="194.03754" r="1.3229166" style="fill:#00ff00;stroke:none" id="circle2935"/>
        <circle cx="171.53223" cy="184.12775" r="1.190625" style="fill:#ff0000;stroke:none" id="circle2937"/>
        <circle cx="147.50851" cy="187.73131" r="1.3229166" style="fill:#00ff00;stroke:none" id="circle2939"/>
        <circle cx="154.11504" cy="186.22981" r="1.190625" style="fill:#ff0000;stroke:none" id="circle2941"/>
        <circle cx="154.11504" cy="186.22981" r="1.3229166" style="fill:#00ff00;stroke:none" id="circle2943"/>
        <circle cx="139.70081" cy="197.64108" r="1.190625" style="fill:#ff0000;stroke:none" id="circle2945"/>
        <circle cx="112.50767" cy="188.94003" r="1.3229166" style="fill:#00ff00;stroke:none" id="circle2947"/>
        <circle cx="126.62913" cy="201.25468" r="1.190625" style="fill:#ff0000;stroke:none" id="circle2949"/>
        <circle cx="107.26881" cy="204.5479" r="1.3229166" style="fill:#00ff00;stroke:none" id="circle2951"/>
        <circle cx="113.57503" cy="195.23872" r="1.190625" style="fill:#ff0000;stroke:none" id="circle2953"/>
        <circle cx="113.57503" cy="195.23872" r="1.3229166" style="fill:#00ff00;stroke:none" id="circle2955"/>
        <circle cx="113.27474" cy="186.53012" r="1.190625" style="fill:#ff0000;stroke:none" id="circle2957"/>
        <circle cx="127.38866" cy="198.84227" r="1.3229166" style="fill:#00ff00;stroke:none" id="circle2959"/>
        <circle cx="110.27177" cy="204.2476" r="1.190625" style="fill:#ff0000;stroke:none" id="circle2961"/>
        <circle cx="84.746582" cy="193.35822" r="1.3229166" style="fill:#00ff00;stroke:none" id="circle2963"/>
        <circle cx="85.659172" cy="192.90192" r="1.190625" style="fill:#ff0000;stroke:none" id="circle2965"/>
      </g>
      <g id="g3017">
        <text x="91.033867" y="197.96033" style="font-style:normal;font-weight:normal;font-size:2.64583px;fill:#999999;fill-opacity:1;stroke:none" id="text2969">0</text>
        <text x="101.54424" y="184.74728" style="font-style:normal;font-weight:normal;font-size:2.64583px;fill:#999999;fill-opacity:1;stroke:none" id="text2971">0</text>
        <text x="145.3875" y="188.05055" style="font-style:normal;font-weight:normal;font-size:2.64583px;fill:#999999;fill-opacity:1;stroke:none" id="text2973">1</text>
        <text x="143.88602" y="195.25766" style="font-style:normal;font-weight:normal;font-size:2.64583px;fill:#999999;fill-opacity:1;stroke:none" id="text2975">1</text>
        <text x="102.48737" y="215.61368" style="font-style:normal;font-weight:normal;font-size:2.64583px;fill:#999999;fill-opacity:1;stroke:none" id="text2977">2</text>
        <text x="102.48737" y="215.61368" style="font-style:normal;font-weight:normal;font-size:2.64583px;fill:#999999;fill-opacity:1;stroke:none" id="text2979">2</text>
        <text x="91.63446" y="195.09621" style="font-style:normal;font-weight:normal;font-size:2.64583px;fill:#999999;fill-opacity:1;stroke:none" id="text2981">3</text>
        <text x="91.934761" y="211.77396" style="font-style:normal;font-weight:normal;font-size:2.64583px;fill:#999999;fill-opacity:1;stroke:none" id="text2983">3</text>
        <text x="156.19817" y="193.15558" style="font-style:normal;font-weight:normal;font-size:2.64583px;fill:#999999;fill-opacity:1;stroke:none" id="text2985">4</text>
        <text x="172.41417" y="183.2458" style="font-style:normal;font-weight:normal;font-size:2.64583px;fill:#999999;fill-opacity:1;stroke:none" id="text2987">4</text>
        <text x="148.39046" y="186.84937" style="font-style:normal;font-weight:normal;font-size:2.64583px;fill:#999999;fill-opacity:1;stroke:none" id="text2989">5</text>
        <text x="154.99698" y="185.34787" style="font-style:normal;font-weight:normal;font-size:2.64583px;fill:#999999;fill-opacity:1;stroke:none" id="text2991">5</text>
        <text x="154.99698" y="185.34787" style="font-style:normal;font-weight:normal;font-size:2.64583px;fill:#999999;fill-opacity:1;stroke:none" id="text2993">6</text>
        <text x="140.58275" y="196.75914" style="font-style:normal;font-weight:normal;font-size:2.64583px;fill:#999999;fill-opacity:1;stroke:none" id="text2995">6</text>
        <text x="113.38962" y="188.05809" style="font-style:normal;font-weight:normal;font-size:2.64583px;fill:#999999;fill-opacity:1;stroke:none" id="text2997">7</text>
        <text x="127.51108" y="200.37274" style="font-style:normal;font-weight:normal;font-size:2.64583px;fill:#999999;fill-opacity:1;stroke:none" id="text2999">7</text>
        <text x="108.15076" y="203.66595" style="font-style:normal;font-weight:normal;font-size:2.64583px;fill:#999999;fill-opacity:1;stroke:none" id="text3001">8</text>
        <text x="114.45698" y="194.35678" style="font-style:normal;font-weight:normal;font-size:2.64583px;fill:#999999;fill-opacity:1;stroke:none" id="text3003">8</text>
        <text x="114.45698" y="194.35678" style="font-style:normal;font-weight:normal;font-size:2.64583px;fill:#999999;fill-opacity:1;stroke:none" id="text3005">9</text>
        <text x="114.15668" y="185.64818" style="font-style:normal;font-weight:normal;font-size:2.64583px;fill:#999999;fill-opacity:1;stroke:none" id="text3007">9</text>
        <text x="128.2706" y="197.96033" style="font-style:normal;font-weight:normal;font-size:2.64583px;fill:#999999;fill-opacity:1;stroke:none" id="text3009">10</text>
        <text x="111.15372" y="203.36566" style="font-style:normal;font-weight:normal;font-size:2.64583px;fill:#999999;fill-opacity:1;stroke:none" id="text3011">10</text>
        <text x="85.628525" y="192.47627" style="font-style:normal;font-weight:normal;font-size:2.64583px;fill:#999999;fill-opacity:1;stroke:none" id="text3013">11</text>
        <text x="86.541115" y="192.01997" style="font-style:normal;font-weight:normal;font-size:2.64583px;fill:#999999;fill-opacity:1;stroke:none" id="text3015">11</text>
      </g>
    </g>
    <path id="path323-6-6-4-0" style="fill:none;fill-rule:evenodd;stroke:#000000;stroke-width:0.264583px;stroke-linecap:butt;stroke-linejoin:miter;stroke-opacity:1" d="m 28.922158,102.71944 7.7047,4.14869 13.8066,-8.684561 m 0.5127,-2.55468 v -8.89007 l -3.556,-7.11205 m -19.675,0.66199 13.6315,-1.18535 4.4926,-0.17519 m -19.7853,1.29122 v 17.18746 l 1.778,5.926711"/>
    <g id="g5848" transform="translate(-1015.4374,-204.33759)">
      <g id="g5828">
        <circle cx="1044.3593" cy="307.05713" r="1.3229166" style="fill:#00ff00;stroke:none" id="circle5812"/>
        <circle cx="1065.8706" cy="302.52127" r="1.190625" style="fill:#ff0000;stroke:none" id="circle5814"/>
        <circle cx="1066.3833" cy="299.96658" r="1.3229166" style="fill:#00ff00;stroke:none" id="circle5816"/>
        <circle cx="1062.8273" cy="283.96448" r="1.190625" style="fill:#ff0000;stroke:none" id="circle5818"/>
        <circle cx="1043.1523" cy="284.62646" r="1.3229166" style="fill:#00ff00;stroke:none" id="circle5820"/>
        <circle cx="1061.2764" cy="283.26593" r="1.190625" style="fill:#ff0000;stroke:none" id="circle5822"/>
        <circle cx="1041.4911" cy="284.55713" r="1.3229166" style="fill:#00ff00;stroke:none" id="circle5824"/>
        <circle cx="1043.269" cy="307.6713" r="1.190625" style="fill:#ff0000;stroke:none" id="circle5826"/>
      </g>
      <g id="g5846">
        <text x="1045.2412" y="306.17517" style="font-style:normal;font-weight:normal;font-size:2.64583px;fill:#999999;fill-opacity:1;stroke:none" id="text5830">0</text>
        <text x="1066.7526" y="301.63931" style="font-style:normal;font-weight:normal;font-size:2.64583px;fill:#999999;fill-opacity:1;stroke:none" id="text5832">0</text>
        <text x="1067.2653" y="299.08463" style="font-style:normal;font-weight:normal;font-size:2.64583px;fill:#999999;fill-opacity:1;stroke:none" id="text5834">1</text>
        <text x="1063.7092" y="283.08252" style="font-style:normal;font-weight:normal;font-size:2.64583px;fill:#999999;fill-opacity:1;stroke:none" id="text5836">1</text>
        <text x="1044.0343" y="283.74451" style="font-style:normal;font-weight:normal;font-size:2.64583px;fill:#999999;fill-opacity:1;stroke:none" id="text5838">2</text>
        <text x="1062.1583" y="282.38397" style="font-style:normal;font-weight:normal;font-size:2.64583px;fill:#999999;fill-opacity:1;stroke:none" id="text5840">2</text>
        <text x="1042.373" y="283.6752" style="font-style:normal;font-weight:normal;font-size:2.64583px;fill:#999999;fill-opacity:1;stroke:none" id="text5842">3</text>
        <text x="1044.151" y="306.78937" style="font-style:normal;font-weight:normal;font-size:2.64583px;fill:#999999;fill-opacity:1;stroke:none" id="text5844">3</text>
      </g>
    </g>
  </g>
</svg>